<?xml version="1.0" encoding="UTF-8"?>
<svg width="998px" height="521px" viewBox="0 0 998 521" version="1.1" xmlns="http://www.w3.org/2000/svg" xmlns:xlink="http://www.w3.org/1999/xlink">
    <!-- Generator: Sketch 42 (36781) - http://www.bohemiancoding.com/sketch -->
    <title>Page 1</title>
    <desc>Created with Sketch.</desc>
    <defs>
        <polygon id="path-1" points="0 524.590164 997.579235 524.590164 997.579235 4.04918033 0 4.04918033"></polygon>
    </defs>
    <g id="Page-1" stroke="none" stroke-width="1" fill="none" fill-rule="evenodd">
        <g transform="translate(0.000000, -5.000000)">
            <polygon id="Fill-1" fill="#7C7D7E" points="264.560656 204.357377 252.888525 211.095082 253.549727 214.59235 244.489617 215.947541 238.866667 219.193443 237.036066 228.133333 237.036066 525.996721 385.205464 525.111475 385.205464 214.59235 374.085246 204.357377"></polygon>
            <polygon id="Fill-2" fill="#231F1F" points="264.354098 203.6 252.042623 210.70929 252.660109 213.960656 244.113661 215.288525 238.201093 218.70929 236.293989 227.977049 236.277596 525.998907 237.791257 525.998907 237.791257 228.130055 239.545355 219.681967 244.742077 216.671038 254.44153 215.228415 253.731148 211.485246 264.763934 205.113661 373.791257 205.113661 384.446995 214.927869 384.446995 525.113661 385.960656 525.113661 385.960656 214.261202 374.381421 203.6"></polygon>
            <g id="Group-72" transform="translate(0.000000, 1.416393)">
                <path d="M296.830055,498.695628 L298.343716,498.67377 L298.786339,222.619126 L378.977596,221.225683 C379.420219,221.821311 381.321858,225.52623 381.693443,245.253005 C382.146995,269.274863 381.698907,311.324044 381.693443,311.744809 L383.207104,311.761202 C383.207104,311.340437 383.660656,269.269399 383.207104,245.220219 C382.901093,229.138251 381.540437,220.083607 379.365574,219.717486 L297.278142,221.132787 L297.278142,221.875956 L296.901093,455.220219 L289.130601,221.274863 L246.791803,222.007104 L240.868306,228.427869 L240.868306,405.602732 L242.381967,405.602732 L242.381967,229.018033 L247.463934,223.509836 L287.66612,222.815847 L296.830055,498.695628 Z" id="Fill-3" fill="#231F1F"></path>
                <path d="M288.12459,222.748087 L288.671038,221.338251 C287.753005,220.98306 266.272131,212.693443 253.834973,212.693443 L253.539891,212.693443 L253.556284,214.207104 L253.834973,214.207104 C265.987978,214.207104 287.900546,222.660656 288.12459,222.748087" id="Fill-5" fill="#231F1F"></path>
                <path d="M297.685246,222.546995 L298.384699,221.202732 C298.182514,221.098907 278.308197,210.880328 258.663388,209.104372 L258.526776,210.612568 C277.881967,212.361202 297.488525,222.443169 297.685246,222.546995" id="Fill-7" fill="#231F1F"></path>
                <mask id="mask-2" fill="white">
                    <use xlink:href="#path-1"></use>
                </mask>
                <g id="Clip-10"></g>
                <polygon id="Fill-9" fill="#7C7D7E" mask="url(#mask-2)" points="46.5027322 420.568306 950.355191 420.568306 950.355191 331.453552 46.5027322 331.453552"></polygon>
                <path d="M47.2568306,419.808743 L949.595628,419.808743 L949.595628,332.20765 L47.2568306,332.20765 L47.2568306,419.808743 Z M45.7431694,421.327869 L951.10929,421.327869 L951.10929,330.699454 L45.7431694,330.699454 L45.7431694,421.327869 Z" id="Fill-11" fill="#231F1F" mask="url(#mask-2)"></path>
                <path d="M53.1153005,340.75082 C69.0989071,340.75082 673.137158,343.045902 673.137158,343.045902" id="Fill-12" fill="#7C7D7E" mask="url(#mask-2)"></path>
                <path d="M673.131148,343.801639 L673.136612,342.287978 C667.098361,342.26612 68.9180328,339.992896 53.1147541,339.992896 L53.1147541,341.506557 C68.9125683,341.506557 667.092896,343.779781 673.131148,343.801639" id="Fill-13" fill="#231F1F" mask="url(#mask-2)"></path>
                <path d="M706.753552,343.044262 L936.021311,343.044262" id="Fill-14" fill="#7C7D7E" mask="url(#mask-2)"></path>
                <polygon id="Fill-15" fill="#231F1F" mask="url(#mask-2)" points="706.754098 343.803279 936.021858 343.803279 936.021858 342.289617 706.754098 342.289617"></polygon>
                <path d="M241.621858,524.580328 C241.621858,524.580328 240.6,305.307104 240.479781,295.044809 C240.102732,261.591257 215.39235,244.44918 192.206557,244.44918 C165.212022,244.44918 137.845902,268.815301 136.998907,288.580328 C136.326776,304.318033 139.365027,524.580328 139.365027,524.580328" id="Fill-16" fill="#CDD1D0" mask="url(#mask-2)"></path>
                <path d="M138.60929,524.590164 L140.122951,524.568306 C140.090164,522.36612 137.090164,304.147541 137.756831,288.612022 C138.565574,269.655738 165.117486,245.202186 192.204918,245.202186 C215.538251,245.202186 239.352459,262.322404 239.724044,295.04918 C239.838798,305.191257 240.855191,522.393443 240.86612,524.584699 L242.379781,524.57377 C242.368852,522.382514 241.352459,305.180328 241.237705,295.032787 C240.855191,261.327869 216.281421,243.688525 192.204918,243.688525 C179.489071,243.688525 165.674863,249.092896 154.314208,258.519126 C143.418033,267.557377 136.65847,278.786885 136.243169,288.546448 C135.576503,304.125683 138.576503,522.387978 138.60929,524.590164" id="Fill-17" fill="#231F1F" mask="url(#mask-2)"></path>
                <path d="M236.160656,524.580328 L236.160656,307.853552 C236.160656,268.405464 205.887432,250.186885 181.559563,251.328962 C157.231694,252.465574 146.707104,270.427322 146.707104,270.427322" id="Fill-18" fill="#CDD1D0" mask="url(#mask-2)"></path>
                <path d="M235.403279,524.580328 L236.91694,524.580328 L236.91694,307.853552 C236.91694,285.935519 227.725683,272.563934 220.015301,265.208743 C209.731148,255.394536 195.359563,249.919126 181.523497,250.569399 C157.069945,251.71694 146.162842,269.864481 146.059016,270.050273 L147.359563,270.809836 C147.468852,270.634973 157.987978,253.186885 181.594536,252.08306 C195.02623,251.454645 208.982514,256.771585 218.971585,266.301639 C226.468852,273.454645 235.403279,286.471038 235.403279,307.853552 L235.403279,524.580328 Z" id="Fill-19" fill="#231F1F" mask="url(#mask-2)"></path>
                <path d="M139.828415,287.213115 C139.828415,291.344262 142.123497,523.672131 142.123497,523.672131" id="Fill-20" fill="#CDD1D0" mask="url(#mask-2)"></path>
                <path d="M141.365027,523.680328 L142.878689,523.663934 C142.851366,521.34153 140.583607,291.29235 140.583607,287.215847 L139.069945,287.215847 C139.069945,291.297814 141.343169,521.357923 141.365027,523.680328" id="Fill-21" fill="#231F1F" mask="url(#mask-2)"></path>
                <path d="M385.389617,524.580328 C385.389617,524.580328 384.36776,305.307104 384.247541,295.044809 C383.870492,261.591257 359.160109,244.44918 335.974317,244.44918 C308.979781,244.44918 281.613661,268.815301 280.766667,288.580328 C280.094536,304.318033 283.132787,524.580328 283.132787,524.580328" id="Fill-22" fill="#CDD1D0" mask="url(#mask-2)"></path>
                <path d="M282.37541,524.590164 L283.889071,524.568306 C283.856284,522.36612 280.856284,304.147541 281.522951,288.612022 C282.331694,269.655738 308.883607,245.202186 335.971038,245.202186 C359.304372,245.202186 383.118579,262.322404 383.490164,295.04918 C383.604918,305.191257 384.621311,522.393443 384.63224,524.584699 L386.145902,524.57377 C386.134973,522.382514 385.118579,305.180328 385.003825,295.032787 C384.621311,261.327869 360.047541,243.688525 335.971038,243.688525 C323.255191,243.688525 309.440984,249.092896 298.080328,258.519126 C287.184153,267.557377 280.42459,278.786885 280.00929,288.546448 C279.342623,304.125683 282.342623,522.387978 282.37541,524.590164" id="Fill-23" fill="#231F1F" mask="url(#mask-2)"></path>
                <path d="M379.927869,524.580328 L379.927869,307.853552 C379.927869,268.405464 349.654645,250.186885 325.326776,251.328962 C300.998907,252.465574 290.474317,270.427322 290.474317,270.427322" id="Fill-24" fill="#CDD1D0" mask="url(#mask-2)"></path>
                <path d="M379.171585,524.580328 L380.685246,524.580328 L380.685246,307.853552 C380.685246,285.935519 371.493989,272.563934 363.783607,265.208743 C353.499454,255.394536 339.122404,249.919126 325.291803,250.569399 C300.838251,251.71694 289.931148,269.864481 289.827322,270.050273 L291.127869,270.809836 C291.231694,270.634973 301.75082,253.186885 325.362842,252.08306 C338.789071,251.454645 352.75082,256.771585 362.739891,266.301639 C370.237158,273.454645 379.171585,286.471038 379.171585,307.853552 L379.171585,524.580328 Z" id="Fill-25" fill="#231F1F" mask="url(#mask-2)"></path>
                <path d="M283.595628,287.213115 C283.595628,291.344262 285.89071,523.672131 285.89071,523.672131" id="Fill-26" fill="#CDD1D0" mask="url(#mask-2)"></path>
                <path d="M285.131694,523.680328 L286.645355,523.663934 C286.618033,521.34153 284.350273,291.29235 284.350273,287.215847 L282.836612,287.215847 C282.836612,291.297814 285.109836,521.357923 285.131694,523.680328" id="Fill-27" fill="#231F1F" mask="url(#mask-2)"></path>
                <path d="M996.823497,524.580328 C996.823497,524.580328 995.796175,305.307104 995.681421,295.044809 C995.304372,261.591257 970.593989,244.44918 947.408197,244.44918 C920.413661,244.44918 893.047541,268.815301 892.200546,288.580328 C891.528415,304.318033 894.566667,524.580328 894.566667,524.580328" id="Fill-28" fill="#CDD1D0" mask="url(#mask-2)"></path>
                <path d="M893.809836,524.590164 L895.323497,524.568306 C895.29071,522.36612 892.29071,304.147541 892.957377,288.612022 C893.76612,269.655738 920.318033,245.202186 947.405464,245.202186 C970.738798,245.202186 994.553005,262.322404 994.92459,295.04918 C995.044809,305.191257 996.055738,522.393443 996.066667,524.584699 L997.580328,524.57377 C997.569399,522.382514 996.55847,305.180328 996.438251,295.032787 C996.055738,261.327869 971.481967,243.688525 947.405464,243.688525 C934.684153,243.688525 920.87541,249.092896 909.514754,258.519126 C898.618579,267.557377 891.859016,278.786885 891.443716,288.546448 C890.777049,304.125683 893.777049,522.387978 893.809836,524.590164" id="Fill-29" fill="#231F1F" mask="url(#mask-2)"></path>
                <path d="M991.361749,524.580328 L991.361749,307.853552 C991.361749,268.405464 961.088525,250.186885 936.760656,251.328962 C912.432787,252.465574 901.908197,270.427322 901.908197,270.427322" id="Fill-30" fill="#CDD1D0" mask="url(#mask-2)"></path>
                <path d="M990.604918,524.580328 L992.118579,524.580328 L992.118579,307.853552 C992.118579,285.935519 982.927322,272.563934 975.222404,265.208743 C964.938251,255.394536 950.572131,249.913661 936.725137,250.569399 C912.271585,251.71694 901.364481,269.864481 901.260656,270.050273 L902.561202,270.809836 C902.665027,270.634973 913.189617,253.186885 936.796175,252.08306 C950.222404,251.454645 964.184153,256.771585 974.173224,266.301639 C981.670492,273.454645 990.604918,286.471038 990.604918,307.853552 L990.604918,524.580328 Z" id="Fill-31" fill="#231F1F" mask="url(#mask-2)"></path>
                <path d="M895.029508,287.213115 C895.029508,291.344262 897.32459,523.672131 897.32459,523.672131" id="Fill-32" fill="#CDD1D0" mask="url(#mask-2)"></path>
                <path d="M896.567213,523.680328 L898.080874,523.663934 C898.059016,521.34153 895.785792,291.29235 895.785792,287.215847 L894.272131,287.215847 C894.272131,291.297814 896.545355,521.357923 896.567213,523.680328" id="Fill-33" fill="#231F1F" mask="url(#mask-2)"></path>
                <path d="M856.791803,524.580328 C856.791803,524.580328 855.769945,305.307104 855.649727,295.044809 C855.272678,261.591257 830.562295,244.44918 807.376503,244.44918 C780.381967,244.44918 753.015847,268.815301 752.168852,288.580328 C751.496721,304.318033 754.534973,524.580328 754.534973,524.580328" id="Fill-34" fill="#CDD1D0" mask="url(#mask-2)"></path>
                <path d="M753.777596,524.590164 L755.291257,524.568306 C755.25847,522.36612 752.25847,304.147541 752.925137,288.612022 C753.73388,269.655738 780.285792,245.202186 807.373224,245.202186 C830.706557,245.202186 854.520765,262.322404 854.897814,295.04918 C855.012568,305.191257 856.023497,522.393443 856.034426,524.584699 L857.548087,524.57377 C857.537158,522.382514 856.52623,305.180328 856.411475,295.032787 C856.023497,261.327869 831.449727,243.688525 807.373224,243.688525 C794.651913,243.688525 780.843169,249.092896 769.482514,258.519126 C758.586339,267.557377 751.83224,278.786885 751.411475,288.546448 C750.744809,304.125683 753.744809,522.387978 753.777596,524.590164" id="Fill-35" fill="#231F1F" mask="url(#mask-2)"></path>
                <path d="M851.330055,524.580328 L851.330055,307.853552 C851.330055,268.405464 821.056831,250.186885 796.728962,251.328962 C772.401093,252.465574 761.876503,270.427322 761.876503,270.427322" id="Fill-36" fill="#CDD1D0" mask="url(#mask-2)"></path>
                <path d="M850.57377,524.580328 L852.087432,524.580328 L852.087432,307.853552 C852.087432,285.935519 842.896175,272.563934 835.191257,265.208743 C824.901639,255.394536 810.508197,249.92459 796.693989,250.569399 C772.234973,251.71694 761.333333,269.864481 761.224044,270.050273 L762.530055,270.809836 C762.63388,270.634973 773.153005,253.186885 796.765027,252.08306 C810.185792,251.460109 824.153005,256.771585 834.142077,266.301639 C841.639344,273.454645 850.57377,286.471038 850.57377,307.853552 L850.57377,524.580328 Z" id="Fill-37" fill="#231F1F" mask="url(#mask-2)"></path>
                <path d="M754.997814,287.213115 C754.997814,291.344262 757.292896,523.672131 757.292896,523.672131" id="Fill-38" fill="#CDD1D0" mask="url(#mask-2)"></path>
                <path d="M756.534973,523.680328 L758.048634,523.663934 C758.026776,521.34153 755.753552,291.29235 755.753552,287.215847 L754.239891,287.215847 C754.239891,291.297814 756.513115,521.357923 756.534973,523.680328" id="Fill-39" fill="#231F1F" mask="url(#mask-2)"></path>
                <path d="M105.47541,524.580328 C105.47541,524.580328 104.453552,305.307104 104.333333,295.044809 C103.956284,261.591257 79.2459016,244.44918 56.0601093,244.44918 C29.0655738,244.44918 1.69945355,268.815301 0.852459016,288.580328 C0.180327869,304.318033 3.21857923,524.580328 3.21857923,524.580328" id="Fill-40" fill="#CDD1D0" mask="url(#mask-2)"></path>
                <path d="M2.46065574,524.590164 L3.97431694,524.568306 C3.94153005,522.36612 0.941530055,304.147541 1.60819672,288.612022 C2.41693989,269.655738 28.9688525,245.202186 56.0562842,245.202186 C79.3896175,245.202186 103.203825,262.322404 103.580874,295.04918 C103.695628,305.191257 104.706557,522.393443 104.717486,524.584699 L106.231148,524.57377 C106.220219,522.382514 105.20929,305.180328 105.094536,295.032787 C104.712022,261.327869 80.1327869,243.688525 56.0562842,243.688525 C43.3349727,243.688525 29.5262295,249.092896 18.1655738,258.519126 C7.26939891,267.557377 0.515300546,278.786885 0.0945355191,288.546448 C-0.572131148,304.125683 2.42786885,522.387978 2.46065574,524.590164" id="Fill-41" fill="#231F1F" mask="url(#mask-2)"></path>
                <path d="M100.013115,524.580328 L100.013115,307.853552 C100.013115,268.405464 69.7398907,250.186885 45.4120219,251.328962 C21.084153,252.465574 10.5595628,270.427322 10.5595628,270.427322" id="Fill-42" fill="#CDD1D0" mask="url(#mask-2)"></path>
                <path d="M99.2568306,524.580328 L100.770492,524.580328 L100.770492,307.853552 C100.770492,285.935519 91.579235,272.563934 83.8743169,265.208743 C73.5846995,255.394536 59.2021858,249.92459 45.3770492,250.569399 C20.9234973,251.71694 10.0163934,269.864481 9.91256831,270.050273 L11.2131148,270.809836 C11.3169399,270.634973 21.8360656,253.186885 45.4480874,252.08306 C58.8688525,251.44918 72.8360656,256.771585 82.8251366,266.301639 C90.3224044,273.454645 99.2568306,286.471038 99.2568306,307.853552 L99.2568306,524.580328 Z" id="Fill-43" fill="#231F1F" mask="url(#mask-2)"></path>
                <path d="M3.68142077,287.213115 C3.68142077,291.344262 5.97650273,523.672131 5.97650273,523.672131" id="Fill-44" fill="#CDD1D0" mask="url(#mask-2)"></path>
                <path d="M5.21857923,523.680328 L6.73224044,523.663934 C6.70491803,521.34153 4.43715847,291.29235 4.43715847,287.215847 L2.92349727,287.215847 C2.92349727,291.297814 5.19672131,521.357923 5.21857923,523.680328" id="Fill-45" fill="#231F1F" mask="url(#mask-2)"></path>
                <path d="M541.585246,524.580328 C541.585246,524.580328 540.557923,305.307104 540.443169,295.044809 C540.06612,261.591257 515.355738,244.44918 492.169945,244.44918 C465.17541,244.44918 437.80929,268.815301 436.962295,288.580328 C436.290164,304.318033 439.328415,524.580328 439.328415,524.580328" id="Fill-46" fill="#CDD1D0" mask="url(#mask-2)"></path>
                <path d="M438.571585,524.590164 L440.085246,524.568306 C440.052459,522.36612 437.052459,304.147541 437.719126,288.612022 C438.527869,269.655738 465.079781,245.202186 492.167213,245.202186 C515.500546,245.202186 539.314754,262.322404 539.686339,295.04918 C539.806557,305.191257 540.817486,522.393443 540.828415,524.584699 L542.342077,524.57377 C542.331148,522.382514 541.320219,305.180328 541.2,295.032787 C540.817486,261.327869 516.243716,243.688525 492.167213,243.688525 C479.451366,243.688525 465.637158,249.092896 454.276503,258.519126 C443.380328,267.557377 436.620765,278.786885 436.205464,288.546448 C435.538798,304.125683 438.538798,522.387978 438.571585,524.590164" id="Fill-47" fill="#231F1F" mask="url(#mask-2)"></path>
                <path d="M536.123497,524.580328 L536.123497,307.853552 C536.123497,268.405464 505.850273,250.186885 481.522404,251.328962 C457.194536,252.465574 446.669945,270.427322 446.669945,270.427322" id="Fill-48" fill="#CDD1D0" mask="url(#mask-2)"></path>
                <path d="M535.367213,524.580328 L536.880874,524.580328 L536.880874,307.853552 C536.880874,285.935519 527.689617,272.563934 519.984699,265.208743 C509.695082,255.394536 495.328962,249.919126 481.487432,250.569399 C457.03388,251.71694 446.126776,269.864481 446.022951,270.050273 L447.323497,270.809836 C447.427322,270.634973 457.946448,253.186885 481.55847,252.08306 C494.979235,251.454645 508.946448,256.771585 518.935519,266.301639 C526.432787,273.454645 535.367213,286.471038 535.367213,307.853552 L535.367213,524.580328 Z" id="Fill-49" fill="#231F1F" mask="url(#mask-2)"></path>
                <path d="M439.791257,287.213115 C439.791257,291.344262 442.086339,523.672131 442.086339,523.672131" id="Fill-50" fill="#CDD1D0" mask="url(#mask-2)"></path>
                <path d="M441.327869,523.680328 L442.84153,523.663934 C442.814208,521.34153 440.546448,291.29235 440.546448,287.215847 L439.032787,287.215847 C439.032787,291.297814 441.306011,521.357923 441.327869,523.680328" id="Fill-51" fill="#231F1F" mask="url(#mask-2)"></path>
                <path d="M701.025137,524.580328 C701.025137,524.580328 700.003279,305.307104 699.88306,295.044809 C699.506011,261.591257 674.795628,244.44918 651.609836,244.44918 C624.615301,244.44918 597.24918,268.815301 596.402186,288.580328 C595.730055,304.318033 598.768306,524.580328 598.768306,524.580328" id="Fill-52" fill="#CDD1D0" mask="url(#mask-2)"></path>
                <path d="M598.011475,524.590164 L599.525137,524.568306 C599.49235,522.36612 596.49235,304.147541 597.159016,288.612022 C597.96776,269.655738 624.519672,245.202186 651.607104,245.202186 C674.940437,245.202186 698.754645,262.322404 699.131694,295.04918 C699.246448,305.191257 700.257377,522.393443 700.268306,524.584699 L701.781967,524.57377 C701.771038,522.382514 700.760109,305.180328 700.645355,295.032787 C700.257377,261.327869 675.683607,243.688525 651.607104,243.688525 C638.885792,243.688525 625.077049,249.092896 613.716393,258.519126 C602.820219,267.557377 596.06612,278.786885 595.645355,288.546448 C594.978689,304.125683 597.978689,522.387978 598.011475,524.590164" id="Fill-53" fill="#231F1F" mask="url(#mask-2)"></path>
                <path d="M695.563388,524.580328 L695.563388,307.853552 C695.563388,268.405464 665.290164,250.186885 640.962295,251.328962 C616.634426,252.465574 606.109836,270.427322 606.109836,270.427322" id="Fill-54" fill="#CDD1D0" mask="url(#mask-2)"></path>
                <path d="M694.807104,524.580328 L696.320765,524.580328 L696.320765,307.853552 C696.320765,285.935519 687.129508,272.563934 679.42459,265.208743 C669.140437,255.394536 654.757923,249.913661 640.927322,250.569399 C616.468306,251.71694 605.566667,269.864481 605.457377,270.050273 L606.763388,270.809836 C606.867213,270.634973 617.386339,253.186885 640.998361,252.08306 C654.42459,251.454645 668.386339,256.771585 678.37541,266.301639 C685.872678,273.454645 694.807104,286.471038 694.807104,307.853552 L694.807104,524.580328 Z" id="Fill-55" fill="#231F1F" mask="url(#mask-2)"></path>
                <path d="M599.231148,287.213115 C599.231148,291.344262 601.52623,523.672131 601.52623,523.672131" id="Fill-56" fill="#CDD1D0" mask="url(#mask-2)"></path>
                <path d="M600.768306,523.680328 L602.281967,523.663934 C602.260109,521.34153 599.986885,291.29235 599.986885,287.215847 L598.473224,287.215847 C598.473224,291.297814 600.746448,521.357923 600.768306,523.680328" id="Fill-57" fill="#231F1F" mask="url(#mask-2)"></path>
                <path d="M563.571585,184.73224 C564.822951,188.617486 574.478689,203.284153 581.768306,209.442623 C589.063388,215.606557 618.112568,249.803279 619.402186,252.251366 C620.697268,254.699454 624.287432,258.26776 631.653552,256.300546 C639.025137,254.327869 654.396721,251.546448 660.025137,252.540984 C665.653552,253.535519 672.893989,257.595628 673.145355,250.737705 C673.396721,243.874317 674.746448,234.617486 661.112568,232.672131 C647.478689,230.726776 643.828415,231.945355 638.495082,227.907104 C633.167213,223.863388 626.380328,204.027322 623.604372,197.726776 C620.828415,191.42623 615.904918,179.923497 615.582514,177.584699 C615.260109,175.240437 618.353005,178.63388 618.921311,179.273224 C619.484153,179.912568 617.587978,171.338798 617.587978,171.338798 C617.587978,171.338798 619.757377,147.169399 616.877596,141.836066" id="Fill-58" fill="#CDD1D0" mask="url(#mask-2)"></path>
                <path d="M627.601093,257.631694 C628.857923,257.631694 630.26776,257.451366 631.852459,257.030601 C638.89071,255.15082 654.278689,252.298361 659.89071,253.287432 C661.125683,253.506011 662.47541,253.88306 663.781421,254.254645 C667.125683,255.194536 670.278689,256.079781 672.256831,254.642623 C673.295082,253.88306 673.830601,252.615301 673.901639,250.762842 L673.956284,249.434973 C674.256831,242.855738 674.672131,233.844809 661.218579,231.926776 C657.043716,231.331148 653.786885,231.025137 651.169399,230.784699 C645.20765,230.232787 642.486339,229.981421 638.95082,227.303825 C634.95082,224.271038 629.743169,211.068852 626.63388,203.183607 C625.704918,200.822951 624.901639,198.801093 624.295082,197.418579 C620.983607,189.893989 617.054645,180.549727 616.409836,177.872131 C616.89071,178.24918 617.590164,178.915847 618.355191,179.77377 L618.743169,180.210929 L619.327869,179.975956 C619.923497,179.67541 620.174863,179.544262 618.355191,171.292896 C618.535519,169.243716 620.420765,146.812022 617.540984,141.478689 L616.213115,142.194536 C618.95082,147.271038 616.857923,171.030601 616.836066,171.271038 L616.825137,171.391257 L616.852459,171.500546 C617.300546,173.527869 617.748634,175.72459 618.016393,177.24918 C616.333333,175.697268 615.748634,175.965027 615.442623,176.107104 C615.087432,176.271038 614.693989,176.67541 614.830601,177.686339 C615.202186,180.391257 621.10929,193.943169 622.912568,198.030601 C623.513661,199.396721 624.306011,201.402186 625.224044,203.740984 C628.601093,212.292896 633.699454,225.216393 638.038251,228.506011 C641.918033,231.445902 644.961749,231.730055 651.027322,232.292896 C653.628415,232.533333 656.868852,232.83388 661.005464,233.424044 C673.098361,235.145355 672.754098,242.702732 672.448087,249.369399 L672.387978,250.708197 C672.338798,252.068852 672.005464,252.954098 671.36612,253.424044 C669.983607,254.424044 667.038251,253.598907 664.191257,252.795628 C662.852459,252.418579 661.464481,252.025137 660.15847,251.795628 C654.31694,250.762842 638.612022,253.659016 631.464481,255.56612 C623.775956,257.620765 620.797814,253.281967 620.071038,251.899454 C618.551913,249.014208 589.322404,214.83388 582.256831,208.866667 C574.967213,202.708197 565.431694,188.036066 564.289617,184.500546 L562.852459,184.965027 C564.163934,189.036066 573.928962,203.812022 581.278689,210.019672 C588.601093,216.205464 617.639344,250.533333 618.73224,252.604372 C619.437158,253.943169 621.907104,257.631694 627.601093,257.631694" id="Fill-59" fill="#231F1F" mask="url(#mask-2)"></path>
                <path d="M471.563388,247.78306 C485.246448,258.160109 500.825683,258.788525 500.825683,258.788525 L506.90765,257.952459 C506.90765,257.952459 514.705464,264.110929 517.475956,260.952459 C520.240984,257.788525 523.006011,243.493443 514.393989,238.553552 C505.787432,233.619126 502.891257,236.799454 502.891257,236.799454 C502.891257,236.799454 499.574317,228.908743 503.497814,225.028962 C507.415847,221.14918 514.033333,208.553552 513.43224,204.181967 C512.831148,199.815847 523.956831,203.848634 528.006011,204.963388 C532.055191,206.078142 554.077049,200.263934 556.109836,198.875956 C558.142623,197.482514 553.885792,206.968852 553.885792,206.968852 L565.639891,195.334973 C569.563388,191.460656 581.306557,183.804918 580.000546,186.449727 C578.694536,189.089071 575.055191,199.05082 577.956831,195.870492 C580.85847,192.690164 590.071585,190.865027 594.404918,181.919672 C598.743716,172.979781 601.344809,167.613661 602.984153,167.389617 C604.618033,167.160109 605.202732,175.427869 604.410383,177.766667 C603.618033,180.1 605.027869,178.236612 611.082514,169.613661 C617.12623,160.99071 619.087978,159.05082 622.159016,153.061749 C625.235519,147.072678 626.85847,134.608197 628.219126,128.296721 C629.579781,121.99071 630.989617,120.127322 635.607104,117.263934 C640.219126,114.406011 652.579781,107.138251 657.022404,107.083607 C661.470492,107.028962 677.082514,103.214754 682.262842,96.384153 C687.448634,89.5480874 685.43224,87.0398907 687.639891,82.8431694 C689.842077,78.6464481 690.465027,79.1163934 686.514208,74.6519126 C682.557923,70.1819672 681.169945,68.1491803 679.869399,62.7612022 C678.574317,57.3786885 675.585246,47.7721311 664.945902,39.2147541 C654.306557,30.6628415 656.153552,35.9743169 654.306557,30.6628415 C652.465027,25.3513661 655.579781,11.5644809 652.771038,11.395082 C649.96776,11.2202186 648.404918,11.9961749 648.404918,11.9961749 C648.404918,11.9961749 653.80929,6.79945355 651.328415,4.91420765 C648.842077,3.02896175 627.831148,24.2803279 623.536066,25.4278689 C619.240984,26.5754098 611.552459,35.4224044 607.186339,36.0234973 C602.814754,36.6245902 585.80929,38.4060109 573.279235,48.4770492 C560.74918,58.5480874 558.74918,68.2857923 545.661749,66.1874317 C532.574317,64.089071 518.831148,53.1819672 515.404918,52.5371585 C511.973224,51.8978142 516.077049,57.4551913 516.077049,57.4551913 C516.077049,57.4551913 491.503279,44.6901639 454.197268,36.4661202 C416.896721,28.236612 395.366667,29.5262295 391.639891,26.6956284 C387.913115,23.8704918 400.962295,33.7666667 400.962295,33.7666667 C400.962295,33.7666667 386.38306,32.9852459 378.038798,33.0180328 C369.694536,33.0562842 352.055191,34.2803279 347.317486,32.1928962 C342.579781,30.1054645 321.01694,23.0508197 321.01694,23.0508197 L326.831148,28.9306011 C326.831148,28.9306011 316.208197,32.6136612 307.563388,30.4661202 C298.924044,28.3131148 284.17541,30.3404372 284.17541,30.3404372 L297.787432,36.2584699 C297.787432,36.2584699 289.12623,38.0071038 282.197268,36.1765027 C275.268306,34.3459016 275.508743,32.089071 265.853005,30.6355191 C256.191803,29.1819672 255.7,33.7010929 233.623497,35.0617486 C211.546995,36.4278689 198.705464,32.0726776 194.361202,28.7721311 C190.011475,25.4770492 181.656284,13.2693989 173.85847,13.2311475 C166.060656,13.1874317 155.585246,17.963388 155.585246,17.963388 C155.585246,17.963388 165.792896,19.3459016 164.153552,19.5699454 C162.514208,19.7939891 147.448634,23.5371585 146.109836,25.9469945 C144.771038,28.3568306 143.842077,41.8431694 155.645355,50.7939891 C167.448634,59.7448087 176.393989,64.0781421 176.393989,64.0781421 L168.596175,64.0398907 C168.596175,64.0398907 173.546995,71.7065574 186.934973,75.9852459 C200.322951,80.2693989 209.044262,82.963388 209.044262,82.963388 L201.623497,85.657377 C201.623497,85.657377 212.503279,91.952459 223.727322,92.6355191 C234.951366,93.3185792 249.230055,91.9142077 256.481421,92.0289617 C263.732787,92.1437158 289.475956,89.1601093 295.087978,89.5043716 C300.705464,89.8431694 305.771038,90.2584699 305.12623,93.6846995 C304.486885,97.1163934 297.055191,115.946995 294.230055,119.67377 C291.404918,123.400546 284.825683,128.198361 279.59071,130.591803 C274.355738,132.979781 271.710929,146.143716 274.006011,154.73388 C276.301093,163.318579 279.945902,181.739344 284.049727,187.296721 C288.148087,192.854098 301.006011,209.455191 303.80929,209.62459 C306.618033,209.793989 338.771038,204.821311 340.880328,203.974317 C342.989617,203.127322 344.934973,188.946995 333.186339,184.438798 C321.437705,179.930601 324.634426,178.936066 321.437705,179.930601 C318.235519,180.930601 314.525137,174.203825 314.077049,170.925137 C313.623497,167.651913 331.159016,169.695628 333.639891,171.57541 C336.12623,173.460656 366.022404,196.619126 370.771038,198.750273 C375.514208,200.881421 384.006011,201.94153 387.191803,204.843169 C390.372131,207.744809 383.59071,211.034426 390.262842,215.061749 C396.940437,219.083607 413.060656,222.99071 419.109836,214.36776 C425.159016,205.744809 425.596175,196.777596 416.896721,190.187432 C408.197268,183.586339 393.137158,171.187432 393.137158,171.187432 C393.137158,171.187432 413.082514,174.569945 417.508743,178.411475 C421.929508,182.25847 473.415847,192.433333 473.415847,192.433333 C473.415847,192.433333 457.27377,236.946995 471.563388,247.78306" id="Fill-60" fill="#CDD1D0" mask="url(#mask-2)"></path>
                <path d="M503.448087,237.308197 L502.650273,238.182514 L502.191257,237.089617 C502.04918,236.745355 498.73224,228.679781 502.961749,224.488525 C506.945355,220.548634 513.224044,208.215301 512.68306,204.286339 C512.530055,203.171585 512.983607,202.526776 513.387978,202.177049 C515.306011,200.537705 520.535519,201.931148 526.180328,203.636066 C526.956284,203.871038 527.650273,204.078689 528.20765,204.231694 C532.027322,205.280874 553.825137,199.521311 555.68306,198.248087 C556.393443,197.761749 556.868852,198.045902 557.043716,198.193443 C557.382514,198.477596 557.961749,198.963934 556.081967,203.728962 L565.10929,194.8 C567.387978,192.543169 578.672131,184.029508 580.469945,185.340984 C580.628415,185.455738 581.114754,185.898361 580.68306,186.783607 C579.737705,188.685246 578.191257,192.936612 577.737705,195.013115 C578.79235,194.024044 580.349727,193.171585 582.125683,192.193443 C586.043716,190.045902 590.923497,187.368306 593.726776,181.59235 C599.010929,170.685246 600.934426,166.903825 602.879781,166.636066 C603.147541,166.603279 603.661202,166.619672 604.125683,167.182514 C605.262295,168.565027 605.68306,173.286339 605.437158,176.220765 C606.808743,174.384699 608.830601,171.499454 610.459016,169.177049 C612.26776,166.603279 613.704918,164.625137 614.923497,162.953005 C617.781421,159.029508 619.355191,156.865574 621.486339,152.718033 C623.754098,148.297268 625.224044,140.220765 626.409836,133.734426 C626.79235,131.619672 627.142077,129.696175 627.47541,128.138798 C628.836066,121.827322 630.284153,119.674317 635.20765,116.625137 C637.961749,114.914754 651.967213,106.390164 657.016393,106.330055 C661.224044,106.280874 676.672131,102.510383 681.666667,95.9256831 C684.770492,91.8218579 685.185792,89.4120219 685.584699,87.0786885 C685.836066,85.5923497 686.076503,84.1879781 686.967213,82.4939891 C687.240437,81.9803279 687.486339,81.5377049 687.699454,81.1442623 C689.065574,78.6743169 689.065574,78.6743169 685.945355,75.1497268 C682.087432,70.789071 680.497268,68.6087432 679.136612,62.9420765 C677.677596,56.9038251 674.579235,47.9311475 664.469945,39.8 C659.251366,35.6032787 657.098361,34.810929 656.065574,34.4284153 C654.63388,33.9038251 654.535519,33.6196721 653.590164,30.9092896 C652.688525,28.3081967 652.901639,24.0677596 653.103825,19.9639344 C653.240437,17.1770492 653.469945,12.515847 652.726776,12.1442623 C650.180328,11.9967213 648.748634,12.6688525 648.737705,12.6688525 L644.355191,14.8327869 L647.879781,11.4448087 C649.218579,10.1606557 651.300546,7.59781421 651.218579,6.18251366 C651.202186,5.89289617 651.092896,5.6852459 650.939891,5.55409836 C649.442623,5.25355191 641.666667,11.9748634 636.513661,16.4010929 C630.765027,21.3409836 625.803279,25.6087432 623.73224,26.1606557 C621.863388,26.6579235 619.081967,28.9147541 616.387978,31.095082 C613.005464,33.8382514 609.808743,36.4284153 607.289617,36.7726776 L606.508197,36.8765027 C601.306011,37.5650273 585.469945,39.6469945 573.754098,49.0677596 C569.825137,52.2262295 566.939891,55.3464481 564.398907,58.1060109 C558.874317,64.095082 554.89071,68.4284153 545.540984,66.936612 C536.650273,65.5103825 527.486339,60.095082 521.420765,56.515847 C518.655738,54.8819672 516.26776,53.4666667 515.262295,53.2808743 C514.967213,53.2262295 514.819672,53.242623 514.79235,53.2262295 C514.688525,53.7180328 515.568306,55.4885246 516.688525,57.0021858 L518.617486,59.6251366 L515.73224,58.1278689 C515.486339,57.9967213 490.803279,45.3136612 454.038251,37.2043716 C432.530055,32.4557377 416.355191,30.8928962 405.655738,29.8546448 C401.26776,29.4284153 397.934426,29.1060109 395.513661,28.6961749 C396.983607,29.8 398.901639,31.2535519 401.415301,33.1606557 L403.382514,34.652459 L400.918033,34.5213115 C400.775956,34.5103825 386.256831,33.7125683 378.043716,33.7781421 C376.065574,33.7836066 373.568306,33.8601093 370.84153,33.9420765 C361.901639,34.2098361 350.781421,34.5431694 347.010929,32.8819672 C343.420765,31.3027322 329.852459,26.7672131 323.765027,24.7508197 L328.213115,29.2480874 L327.081967,29.6415301 C326.639344,29.8 316.142077,33.379235 307.382514,31.1989071 C301.218579,29.663388 291.737705,30.3136612 287.065574,30.7726776 L300.295082,36.526776 L297.939891,37.0021858 C297.57377,37.073224 289.021858,38.7617486 282,36.9092896 C279.076503,36.1387978 277.393443,35.2863388 275.759563,34.4666667 C273.469945,33.3081967 271.306011,32.220765 265.737705,31.379235 C261.229508,30.7016393 258.885246,31.3409836 254.994536,32.4120219 C250.84153,33.5486339 245.153005,35.1060109 233.672131,35.8163934 C212.333333,37.1333333 198.907104,33.1715847 193.901639,29.379235 C192.606557,28.3956284 191.021858,26.7071038 189.191257,24.7617486 C184.928962,20.2262295 179.092896,14.0131148 173.852459,13.9857923 L173.754098,13.9857923 C168.52459,13.9857923 161.983607,16.220765 158.448087,17.5978142 C165.087432,18.5431694 165.087432,18.8054645 165.087432,19.4994536 C165.087432,19.6196721 165.04918,20.2098361 164.256831,20.3191257 C162.196721,20.6032787 147.836066,24.3956284 146.770492,26.3136612 C145.661202,28.3191257 144.535519,41.4174863 156.103825,50.1879781 C167.704918,58.9857923 176.63388,63.357377 176.726776,63.3956284 L179.721311,64.8546448 L170.153005,64.8 C172.114754,67.073224 177.333333,72.1224044 187.163934,75.2644809 C200.551913,79.5486339 209.26776,82.242623 209.26776,82.242623 L211.420765,82.9092896 L203.47541,85.7836066 C206.797814,87.4830601 215.234973,91.357377 223.770492,91.8765027 C230.693989,92.3027322 238.655738,91.9256831 245.677596,91.5978142 C249.989071,91.4010929 253.710383,91.2262295 256.491803,91.2699454 C260.010929,91.3081967 267.961749,90.6415301 275.672131,89.9803279 C284.174863,89.2535519 292.213115,88.5704918 295.136612,88.7453552 C300.174863,89.0568306 303.852459,89.4174863 305.322404,91.2972678 C305.868852,92.0021858 306.054645,92.8491803 305.868852,93.8273224 C305.245902,97.1497268 297.868852,116.122404 294.830601,120.127869 C292.010929,123.84918 285.453552,128.745355 279.901639,131.27541 C275.262295,133.395628 272.459016,146.002186 274.737705,154.537705 C275.245902,156.450273 275.825137,158.843716 276.459016,161.477596 C278.606557,170.412022 281.551913,182.652459 284.655738,186.84918 C292.273224,197.171585 302.038251,208.75082 303.857923,208.871038 C306.502732,209.056831 338.382514,204.160656 340.590164,203.27541 C341.027322,203.029508 341.923497,200.685246 341.672131,197.253552 C341.47541,194.548634 340.229508,187.953005 332.912568,185.144262 C326.967213,182.865574 324.754098,181.439344 323.693989,180.761749 C322.923497,180.259016 322.918033,180.264481 321.661202,180.652459 C320.721311,180.947541 319.726776,180.767213 318.699454,180.11694 C315.939891,178.362842 313.672131,173.565027 313.327869,171.029508 C313.26776,170.625137 313.322404,169.860109 314.289617,169.291803 C317.650273,167.32459 331.765027,169.204372 334.098361,170.974863 L335.901639,172.351913 C356.502732,188.182514 368.338798,196.827322 371.076503,198.062295 C372.874317,198.865574 375.202186,199.510383 377.672131,200.193443 C381.579235,201.269945 385.622951,202.390164 387.699454,204.286339 C389.387978,205.821858 388.836066,207.554098 388.387978,208.942077 C387.79235,210.783607 387.284153,212.379235 390.655738,214.412022 C397.398907,218.477596 412.896175,221.892896 418.491803,213.931148 C422.180328,208.668852 426.825137,198.663388 416.437158,190.783607 C407.830601,184.253552 392.803279,171.898361 392.655738,171.772678 L390.464481,169.969399 L393.262295,170.444809 C394.087432,170.581421 413.469945,173.903825 418,177.843716 C421.502732,180.887432 459.295082,188.871038 473.562842,191.69071 L474.42623,191.860109 L474.125683,192.69071 C473.967213,193.127869 458.333333,236.8 472.021858,247.177049 C485.344262,257.280874 500.699454,258.024044 500.721311,258.034973 L507.125683,257.155191 L507.377049,257.357377 C509.251366,258.838251 515.032787,262.59235 516.907104,260.450273 C518.431694,258.701639 520.081967,252.756284 519.191257,247.406557 C518.748634,244.767213 517.497268,241.204372 514.021858,239.209836 C510.371585,237.11694 507.830601,236.554098 506.15847,236.554098 C504.234973,236.554098 503.453552,237.297268 503.448087,237.308197 M506.693989,258.739891 L500.79235,259.543169 C500.63388,259.537705 484.819672,258.783607 471.103825,248.384699 C457.464481,238.040437 470.196721,199.368306 472.409836,193.002186 C465.42623,191.608743 421.262295,182.679781 417.010929,178.985792 C413.781421,176.182514 401.530055,173.554098 395.89071,172.466667 C400.431694,176.182514 410.775956,184.59235 417.355191,189.581421 C425.677596,195.892896 426.546448,205.084153 419.726776,214.8 C413.52459,223.646995 397.245902,220.149727 389.874317,215.707104 C385.47541,213.056831 386.327869,210.412022 386.945355,208.477596 C387.409836,207.034973 387.606557,206.248087 386.677596,205.401093 C384.868852,203.75082 381.005464,202.679781 377.26776,201.652459 C374.743169,200.953005 372.355191,200.291803 370.459016,199.444809 C367.568306,198.144262 355.967213,189.674317 334.978142,173.554098 L333.185792,172.177049 C331.278689,170.734426 317.846995,168.963934 315.054645,170.597814 C314.978142,170.636066 314.814208,170.745355 314.825137,170.821858 C315.131148,173.045902 317.234973,177.390164 319.513661,178.843716 C320.142077,179.242623 320.710383,179.362842 321.20765,179.209836 C322.956284,178.668852 323.191257,178.636066 324.513661,179.488525 C325.535519,180.144262 327.655738,181.510383 333.453552,183.734426 C342.448087,187.182514 343.20765,195.75082 343.229508,198.291803 C343.245902,200.95847 342.612022,204.095082 341.163934,204.674317 C338.743169,205.646995 306.557377,210.554098 303.765027,210.379235 C300.021858,210.149727 284.114754,188.663388 283.437158,187.745355 C280.15847,183.297268 277.289617,171.395628 274.983607,161.832787 C274.355191,159.209836 273.781421,156.827322 273.273224,154.925683 C270.956284,146.253552 273.453552,132.559563 279.278689,129.898361 C284.540984,127.499454 290.983607,122.701639 293.628415,119.215301 C296.306011,115.685246 303.704918,97.1497268 304.382514,93.5486339 C304.486339,93.0021858 304.404372,92.5814208 304.125683,92.2262295 C302.967213,90.7398907 298.57377,90.4721311 295.04918,90.2590164 C292.20765,90.084153 283.874317,90.8 275.803279,91.4885246 C268.04918,92.1551913 260.021858,92.8382514 256.469945,92.7836066 C253.737705,92.7289617 250.038251,92.9092896 245.748634,93.1114754 C238.68306,93.4393443 230.672131,93.810929 223.68306,93.3901639 C212.409836,92.7016393 201.693989,86.5704918 201.245902,86.3081967 L199.836066,85.4994536 L206.672131,83.0185792 C203.300546,81.9693989 196.169399,79.7344262 186.704918,76.7071038 C173.213115,72.3901639 168.169399,64.7672131 167.961749,64.4448087 L167.202186,63.2699454 L173.31694,63.3027322 C169.759563,61.3409836 163.076503,57.379235 155.191257,51.3956284 C142.661202,41.8983607 144.174863,27.8655738 145.448087,25.5759563 C146.677596,23.368306 155.967213,20.7562842 160.956284,19.526776 C159.371585,19.2644809 157.371585,18.9693989 155.486339,18.7125683 L152.89071,18.3628415 L155.273224,17.2754098 C155.704918,17.0786885 165.901639,12.4721311 173.754098,12.4721311 L173.857923,12.4721311 C179.748634,12.4994536 185.595628,18.7234973 190.295082,23.7234973 C192.076503,25.6251366 193.622951,27.2644809 194.814208,28.1715847 C198.68306,31.1005464 211.191257,35.6961749 233.579235,34.3081967 C244.901639,33.6087432 250.502732,32.073224 254.595628,30.9530055 C258.535519,29.8710383 261.136612,29.1551913 265.961749,29.8874317 C271.770492,30.7617486 274.147541,31.9584699 276.442623,33.1169399 C278,33.9038251 279.617486,34.7125683 282.387978,35.4448087 C286.814208,36.6142077 292.032787,36.2754098 295.076503,35.9038251 L281.398907,29.9584699 L284.071038,29.5923497 C284.68306,29.5103825 299.060109,27.5650273 307.748634,29.7289617 C314.431694,31.3956284 322.459016,29.4284153 325.415301,28.5759563 L318.278689,21.357377 L321.251366,22.3300546 C322.131148,22.6196721 342.901639,29.4174863 347.622951,31.4994536 C351.076503,33.0240437 362.47541,32.6797814 370.797814,32.4284153 C373.535519,32.3464481 376.04918,32.2699454 378.032787,32.2644809 C384.300546,32.2480874 394.021858,32.6688525 398.551913,32.8874317 C396.295082,31.1770492 392.704918,28.4557377 391.20765,27.3191257 L391.185792,27.3027322 C391.136612,27.2644809 391.087432,27.231694 391.043716,27.1934426 C390.715847,26.947541 390.52459,26.8 390.513661,26.7945355 L390.530055,26.7781421 C390.15847,26.4338798 390.054645,26.1497268 390.36612,25.7344262 C390.546448,25.4994536 390.655738,25.357377 391.322404,25.7289617 L391.431694,25.5868852 L392.098361,26.095082 C393.497268,27.1606557 398.393443,27.6360656 405.803279,28.3519126 C416.535519,29.3901639 432.765027,30.9584699 454.36612,35.7234973 C484.743169,42.4229508 506.934426,52.242623 514.016393,55.6032787 C513.420765,54.4393443 513.021858,53.1825137 513.508197,52.4065574 C513.765027,51.9967213 514.322404,51.5650273 515.540984,51.7945355 C516.808743,52.0295082 519.065574,53.3628415 522.191257,55.2098361 C528.15847,58.7344262 537.169399,64.0568306 545.781421,65.4393443 C554.327869,66.8054645 557.89071,62.936612 563.289617,57.0786885 C565.863388,54.2863388 568.786885,51.1169399 572.803279,47.8874317 C584.852459,38.2043716 601,36.0786885 606.311475,35.379235 L607.081967,35.2754098 C609.185792,34.9857923 612.360656,32.4120219 615.431694,29.9202186 C618.377049,27.5322404 621.163934,25.2808743 623.344262,24.6961749 C625.076503,24.231694 630.628415,19.4612022 635.52459,15.2535519 C645.748634,6.46666667 650.081967,3.02404372 651.781421,4.30819672 C652.360656,4.75081967 652.688525,5.36284153 652.73224,6.08961749 C652.819672,7.5704918 651.672131,9.36284153 650.612022,10.6852459 C651.240437,10.6142077 651.978142,10.5814208 652.819672,10.6360656 C655.071038,10.7726776 654.879781,14.663388 654.612022,20.0404372 C654.42623,23.810929 654.218579,28.084153 655.021858,30.4120219 C655.825137,32.7289617 655.825137,32.7289617 656.590164,33.0076503 C657.699454,33.4174863 660.005464,34.2699454 665.420765,38.6251366 C675.885246,47.0404372 679.098361,56.3300546 680.606557,62.5868852 C681.836066,67.6961749 683.092896,69.6415301 687.081967,74.1497268 C690.693989,78.231694 690.803279,78.6688525 689.027322,81.8765027 C688.808743,82.2590164 688.57377,82.6961749 688.311475,83.1934426 C687.530055,84.6797814 687.31694,85.9092896 687.076503,87.3355191 C686.666667,89.7289617 686.202186,92.4448087 682.868852,96.8382514 C677.502732,103.920219 661.57377,107.789071 657.032787,107.843716 C653.431694,107.887432 643.453552,113.291803 636.005464,117.90929 C631.666667,120.597814 630.306011,122.209836 628.956284,128.455738 C628.622951,129.996721 628.278689,131.90929 627.896175,134.00765 C626.699454,140.59235 625.202186,148.789071 622.836066,153.406557 C620.650273,157.663388 619.04918,159.860109 616.147541,163.843716 C614.934426,165.510383 613.497268,167.48306 611.699454,170.045902 C604.830601,179.838251 604.765027,179.783607 603.907104,179.357377 C603.191257,178.996721 603.480874,178.144262 603.693989,177.521311 C604.448087,175.291803 603.754098,168.718033 603.087432,168.133333 C601.846995,168.308197 598.715847,174.767213 595.087432,182.248087 C592.076503,188.461202 586.743169,191.384699 582.852459,193.521311 C580.994536,194.543169 579.387978,195.422951 578.519126,196.379235 C578.20765,196.723497 577.377049,197.630601 576.579235,197.084153 C575.136612,196.095082 577.868852,189.422951 578.945355,186.953005 C576.300546,188.160656 569.26776,192.810929 566.174863,195.871038 L551.535519,210.362842 L553.196721,206.657923 C554.295082,204.209836 555.42623,201.319126 555.786885,199.881967 C551.262295,201.827322 531.743169,206.767213 527.803279,205.69071 C527.240437,205.53224 526.535519,205.32459 525.737705,205.084153 C522.519126,204.111475 515.819672,202.089617 514.371585,203.330055 C514.295082,203.395628 514.10929,203.554098 514.180328,204.078689 C514.830601,208.816393 508.038251,221.597814 504.027322,225.565027 C501.234973,228.32459 502.590164,233.570492 503.273224,235.636066 C504.797814,234.887432 508.322404,234.198907 514.775956,237.898361 C517.928962,239.712568 519.972678,242.914754 520.68306,247.155191 C521.612022,252.734426 520.038251,259.16612 518.043716,261.450273 C517.311475,262.286339 516.338798,262.614208 515.262295,262.614208 C512.027322,262.614208 507.89071,259.652459 506.693989,258.739891" id="Fill-61" fill="#231F1F" mask="url(#mask-2)"></path>
                <path d="M632.992896,57.1666667 C635.615847,56.5054645 636.861749,56.0245902 637.304372,54.931694 C637.801639,53.6967213 636.981967,52.2704918 635.353552,49.647541 C634.26612,47.8934426 634.468306,43.4945355 635.883607,38.1775956 C637.408197,32.4617486 639.932787,27.4071038 641.752459,26.4234973 C646.031148,24.1120219 653.124044,12.2814208 653.42459,11.7786885 L655.812568,7.77868852 L652.282514,10.8169399 C652.042077,11.0245902 628.331694,31.3743169 621.178689,32.8224044 L621.479235,34.3032787 C627.277049,33.1338798 642.369945,21.057377 649.484699,15.1502732 C647.042077,18.8224044 643.435519,23.795082 641.031148,25.0901639 C638.430055,26.4945355 635.839891,32.4836066 634.42459,37.7896175 C633.681421,40.5710383 632.162295,47.3743169 634.069399,50.4453552 C635.036612,52.0081967 636.140437,53.784153 635.9,54.363388 C635.675956,54.931694 633.686885,55.4289617 632.621311,55.6967213 L632.992896,57.1666667 Z" id="Fill-62" fill="#231F1F" mask="url(#mask-2)"></path>
                <path d="M687.472678,83.5808743 L687.806011,82.1054645 C686.177596,81.7338798 683.407104,80.679235 682.898907,79.4169399 L681.494536,79.9797814 C682.461749,82.384153 686.964481,83.4661202 687.472678,83.5808743" id="Fill-63" fill="#231F1F" mask="url(#mask-2)"></path>
                <path d="M671.896175,75.0295082 L672.672131,73.7289617 C671.415301,72.9803279 668.163934,69.220765 667.737705,66.1005464 C667.622951,65.2590164 667.879781,64.4721311 668.513661,63.7562842 C669.721311,62.3737705 672.229508,61.3901639 674.57377,61.4666667 L674.584699,59.9530055 C671.786885,59.9202186 668.879781,61.0349727 667.371585,62.7562842 C666.453552,63.8054645 666.060109,65.0295082 666.234973,66.3081967 C666.726776,69.8601093 670.229508,74.0349727 671.896175,75.0295082" id="Fill-64" fill="#231F1F" mask="url(#mask-2)"></path>
                <path d="M670.665574,73.4060109 C670.796721,73.3622951 671.960656,72.9360656 672.660109,71.3513661 C673.671038,69.0672131 673.184699,65.6464481 671.206557,61.1983607 L669.824044,61.8103825 C672.059016,66.8486339 671.851366,69.4497268 671.277596,70.7393443 C670.845902,71.7120219 670.195628,71.9688525 670.190164,71.9688525 L670.665574,73.4060109 Z" id="Fill-65" fill="#231F1F" mask="url(#mask-2)"></path>
                <path d="M634.698907,44.7879781 C635.332787,42.5202186 641.791803,41.0939891 646.059563,40.1486339 C649.830055,39.3125683 651.993989,38.8043716 652.748087,37.9355191 L651.606011,36.9409836 C651.146995,37.4765027 648.146995,38.1377049 645.737158,38.673224 C640.289071,39.8754098 634.119672,41.2415301 633.239891,44.3781421 L634.698907,44.7879781 Z" id="Fill-66" fill="#231F1F" mask="url(#mask-2)"></path>
                <path d="M514.433333,203.131148 C516.591803,194.754098 527.640984,190.382514 529.329508,189.759563 C530.334973,190.054645 534.438798,191.295082 536.181967,192.617486 C536.553552,192.901639 537.340437,193.497268 537.968852,192.994536 C538.657377,192.453552 538.242077,191.508197 537.548087,189.939891 C537.313115,189.409836 537.072678,188.863388 536.936066,188.453552 C537.52623,187.655738 541.291257,185.726776 544.067213,184.311475 C547.695628,182.453552 551.449727,180.530055 553.389617,178.896175 C556.121858,176.601093 559.83224,169.95082 562.548087,165.092896 C563.62459,163.15847 564.837705,160.989071 565.30765,160.398907 C566.045355,160.803279 567.886885,163.437158 569.389617,166.284153 L570.897814,169.142077 L570.815847,165.912568 C570.78306,164.715847 570.788525,163.355191 570.837705,162.404372 C572.755738,163.885246 576.777596,165.497268 578.324044,165.530055 C579.160109,165.590164 579.498907,165.191257 579.646448,164.89071 C580.007104,164.15847 579.389617,163.387978 579.154645,163.098361 C577.57541,161.131148 577.646448,158.114754 577.712022,155.196721 C577.750273,153.721311 577.78306,152.322404 577.608197,151.054645 L576.110929,151.262295 C576.269399,152.409836 576.236612,153.748634 576.203825,155.163934 C576.132787,158.174863 576.045355,161.590164 577.925137,163.983607 C576.143716,163.677596 571.728415,161.628415 571.274863,160.775956 C570.946995,160.027322 570.41694,160.060109 570.20929,160.103825 C569.744809,160.20765 569.362295,160.295082 569.285792,163.043716 C568.110929,161.131148 566.608197,159.076503 565.460656,158.868852 C565.072678,158.797814 564.695628,158.896175 564.406011,159.153005 C563.881421,159.617486 563.001639,161.169399 561.225683,164.355191 C558.722951,168.84153 554.936066,175.617486 552.41694,177.743169 C550.608197,179.262295 546.766667,181.229508 543.378689,182.961749 C537.056284,186.196721 535.045355,187.355191 535.433333,188.710383 C535.580874,189.234973 535.875956,189.901639 536.165574,190.551913 C536.20929,190.655738 536.25847,190.775956 536.313115,190.896175 C533.854098,189.442623 529.695628,188.289617 529.498907,188.234973 L529.274863,188.174863 L529.061749,188.251366 C528.504372,188.437158 515.504372,192.928962 512.968852,202.754098 L514.433333,203.131148 Z" id="Fill-67" fill="#231F1F" mask="url(#mask-2)"></path>
                <path d="M472.657923,192.44153 L474.171585,192.419672 C474.122404,188.687432 474.269945,182.321311 474.892896,181.135519 C475.280874,180.403279 474.931148,180.004372 474.761749,179.86776 C474.384699,179.561749 474.040437,179.255738 470.925683,181.55082 L475.138798,174.692896 L466.379235,180.86776 C465.947541,180.206557 465.340984,178.660109 466.122404,175.747541 C466.892896,172.86776 471.406557,168.375956 478.193443,163.731148 C480.406557,162.217486 487.821858,152.731148 488.657923,151.654645 L489.510383,150.556284 L488.127869,150.436066 C487.390164,150.370492 486.603279,150.228415 486.089617,150.080874 C486.122404,150.064481 486.160656,150.048087 486.204372,150.031694 C488.138798,149.179235 492.368306,143.097268 498.138798,134.594536 C500.985792,130.397814 503.674317,126.430601 504.543169,125.698361 C505.209836,125.130055 507.335519,123.944262 509.8,122.572678 C515.679781,119.293989 524.570492,114.337705 528.040437,109.960656 L526.854645,109.020765 C523.570492,113.162842 514.838251,118.031694 509.062295,121.250273 C506.32459,122.774863 504.346448,123.878689 503.559563,124.539891 C502.586885,125.370492 500.390164,128.578142 496.887432,133.742077 C493.056831,139.381421 487.27541,147.900546 485.59235,148.64918 C485.155191,148.840437 483.996721,149.348634 484.155191,150.321311 C484.204372,150.594536 484.330055,151.359563 486.646995,151.769399 C483.985792,155.140984 478.865574,161.436066 477.335519,162.485246 C473.11694,165.370492 465.860109,170.878689 464.657923,175.354098 C463.280874,180.496175 465.696175,182.403279 465.805464,182.479781 L466.242623,182.813115 L470.002186,180.168306 L465.11694,188.108197 L468.559563,185.315847 C470.138798,184.037158 471.969399,182.643716 473.155191,181.840437 C472.59235,184.955191 472.636066,191.048087 472.657923,192.44153" id="Fill-68" fill="#231F1F" mask="url(#mask-2)"></path>
                <path d="M390.02459,174.140437 C397.040984,174.140437 407.286885,167.189617 410.325137,163.938251 C411.669399,162.501093 413.139344,160.561202 414.560109,158.686885 C415.953552,156.856284 417.811475,154.402732 418.653005,153.807104 C418.729508,154.195082 418.685792,154.905464 418.663934,155.249727 C418.603825,156.200546 418.554645,157.102186 419.29235,157.430055 C420.035519,157.757923 420.795082,157.080328 421.45082,156.413661 C424.581967,153.238798 423.838798,131.074863 416.937158,122.151366 L415.740437,123.074863 C422.39071,131.675956 422.685792,153.003825 420.374317,155.353552 C420.29235,155.435519 420.226776,155.501093 420.161202,155.561202 C420.161202,155.484699 420.166667,155.408197 420.172131,155.342623 C420.237705,154.309836 420.303279,153.145902 419.60929,152.484699 C419.379781,152.26612 419.084699,152.145902 418.734973,152.184153 C417.631148,152.271585 416.314208,153.872678 413.352459,157.774317 C411.953552,159.621311 410.510929,161.522951 409.221311,162.905464 C405.92623,166.435519 394.702186,173.708743 388.592896,172.495628 C384.325137,171.648634 374.221311,170.080328 367.532787,169.042077 C364.112022,168.512022 361.483607,168.102186 360.745902,167.965574 L360.467213,169.451913 C361.210383,169.593989 363.860656,170.003825 367.297814,170.539344 C373.97541,171.572131 384.062842,173.140437 388.297814,173.976503 C388.844262,174.091257 389.423497,174.140437 390.02459,174.140437" id="Fill-69" fill="#231F1F" mask="url(#mask-2)"></path>
                <path d="M334.572678,173.234973 L335.627322,172.153005 C327.780328,164.513661 329.64918,157.098361 332.6,152.218579 C334.239344,149.508197 336.436066,149.956284 340.184699,150.983607 C342.414208,151.595628 344.938798,152.295082 347.556284,151.928962 C349.020765,151.726776 349.468852,151.666667 349.436066,150.939891 C349.408743,150.218579 348.856831,150.191257 347.856831,150.131148 C337.272131,149.530055 329.501639,146.535519 324.75847,141.224044 C323.889617,140.251366 323.217486,139.480874 322.698361,138.863388 C322.884153,138.994536 323.064481,139.114754 323.239344,139.240437 C325.512568,140.819672 326.949727,141.797814 327.802186,141.956284 C328.474317,142.081967 328.75847,141.655738 328.824044,141.519126 C329.23388,140.721311 328.654645,140.098361 323.91694,135.562842 C320.255738,132.060109 315.310383,127.322404 313.895082,124.715847 C314.796721,125.486339 315.769399,126.224044 316.638251,126.31694 C317.069945,126.371585 317.468852,126.136612 317.654645,125.715847 C318.75847,123.202186 311.217486,105.120219 310.446995,104.442623 C310.130055,104.163934 309.507104,103.967213 308.742077,103.825137 C308.944262,103.688525 309.12459,103.535519 309.266667,103.36612 C309.621858,102.956284 309.774863,102.464481 309.698361,101.945355 C309.403279,99.7814208 305.856831,92.3387978 305.452459,91.4972678 L304.091803,92.1530055 C305.157377,94.3825137 307.977049,100.519126 308.201093,102.147541 C308.212022,102.213115 308.212022,102.278689 308.119126,102.382514 C307.501639,103.10929 304.911475,103.469945 303.272131,103.502732 L303.299454,105.016393 L303.299454,105.016393 C305.856831,104.978142 308.949727,105.20765 309.452459,105.584699 C310.315847,106.655738 315.96612,121.240437 316.277596,124.606557 C315.676503,124.26776 314.889617,123.579235 314.365027,123.125683 C313.310383,122.202186 312.676503,121.644809 312.015301,122.131148 C311.359563,122.617486 311.692896,123.519126 312.321311,124.95082 C313.545355,127.73224 318.714754,132.677596 322.86776,136.655738 C323.474317,137.234973 324.102732,137.836066 324.692896,138.404372 C324.485246,138.262295 324.288525,138.125683 324.102732,138 C321.212022,135.978142 320.337705,135.371585 319.687432,136.10929 C319.12459,136.748634 319.151913,137.218579 323.632787,142.229508 C326.255738,145.169399 329.725683,147.437158 334.009836,149.021858 C333.004372,149.404372 332.086339,150.147541 331.304918,151.437158 C328.069945,156.781421 326.015301,164.907104 334.572678,173.234973" id="Fill-70" fill="#231F1F" mask="url(#mask-2)"></path>
                <path d="M672.640984,101.046448 C674.788525,101.046448 677.25847,100.631148 680.089071,99.5491803 L679.553552,98.1393443 C671.198361,101.330601 666.427869,98.3142077 663.57541,96.510929 C662.023497,95.5327869 660.799454,94.7568306 659.761202,95.6803279 L660.761202,96.8114754 C660.946995,96.636612 662.045355,97.3360656 662.766667,97.7896175 C664.750273,99.0464481 667.914208,101.046448 672.640984,101.046448" id="Fill-71" fill="#231F1F" mask="url(#mask-2)"></path>
            </g>
        </g>
    </g>
</svg>