<?xml version="1.0" encoding="utf-8"?>
<!-- Generator: Adobe Illustrator 21.0.0, SVG Export Plug-In . SVG Version: 6.00 Build 0)  -->
<svg version="1.1" id="Layer_1" xmlns="http://www.w3.org/2000/svg" xmlns:xlink="http://www.w3.org/1999/xlink" x="0px" y="0px"
	 viewBox="0 0 33 46" style="enable-background:new 0 0 33 46;" xml:space="preserve">
<style type="text/css">
	.st0{fill:#00D6A8;}
	.st1{fill:#FFFFFF;}
</style>
<path class="st0" d="M16.6,0L16.6,0C7.4,0,0,7.4,0,16.6c0,3.2,1,6.2,2.4,8.8l10.8,18.8c0.7,1.2,2.1,1.8,3.3,1.8
	c1.3,0,2.6-0.6,3.3-1.8l10.8-18.7C32.1,23,33,20,33,16.7C33.2,7.4,25.8,0,16.6,0z"/>
<path class="st1" d="M9.5,25.1c2.4,0,4.5-0.9,6.2-2.4v2.9c0,0.8,0.6,1.4,1.4,1.4c0.8,0,1.4-0.6,1.4-1.4v-2.9
	c1.6,1.5,3.8,2.4,6.2,2.4c0.8,0,1.4-0.6,1.4-1.4s-0.6-1.4-1.4-1.4c-2.6,0-4.9-1.6-5.8-4c1.1,0.7,2.4,1.1,3.9,1.1
	c0.8,0,1.4-0.6,1.4-1.4c0-0.8-0.7-1.4-1.5-1.4c-2,0-3.7-1.4-4.2-3.4c0.7,0.3,1.4,0.5,2.3,0.5c0.8,0,1.4-0.6,1.4-1.4
	s-0.6-1.4-1.4-1.4c-1.3,0-2.4-1-2.4-2.4c0-0.7-0.6-1.3-1.4-1.3s-1.4,0.6-1.4,1.4c0,1.3-1,2.4-2.4,2.4c-0.8,0-1.4,0.6-1.4,1.4
	s0.6,1.4,1.4,1.4s1.6-0.2,2.3-0.5c-0.4,1.9-2.1,3.4-4.2,3.4c-0.8,0-1.4,0.6-1.4,1.4c0,0.8,0.6,1.4,1.4,1.4c1.4,0,2.7-0.4,3.9-1.1
	c-0.9,2.3-3.1,4-5.8,4C8.7,22.4,8,23,8,23.8S8.7,25.1,9.5,25.1z"/>
</svg>
