<?xml version="1.0" encoding="utf-8"?>
<!-- Generator: Adobe Illustrator 21.0.0, SVG Export Plug-In . SVG Version: 6.00 Build 0)  -->
<svg version="1.1" id="Layer_1" xmlns="http://www.w3.org/2000/svg" xmlns:xlink="http://www.w3.org/1999/xlink" x="0px" y="0px"
	 viewBox="0 0 33 46" style="enable-background:new 0 0 33 46;" xml:space="preserve">
<style type="text/css">
	.st0{fill:#FD9D29;}
	.st1{fill:#FFFFFF;}
</style>
<path class="st0" d="M16.6,0L16.6,0C7.4,0,0,7.4,0,16.6c0,3.2,1,6.2,2.4,8.8l10.8,18.8c0.7,1.2,2.1,1.8,3.3,1.8
	c1.3,0,2.6-0.6,3.3-1.8l10.8-18.7C32.1,23,33,20,33,16.7C33.2,7.4,25.8,0,16.6,0z"/>
<path class="st1" d="M12.9,18.3c0,2.1,1.7,3.7,3.7,3.7s3.7-1.7,3.7-3.7s-1.7-3.7-3.7-3.7S12.9,16.2,12.9,18.3z M25.8,11.1h-4.6
	c-0.3-1.3-0.7-2.6-2-2.6H14c-1.3,0-1.6,1.3-2,2.6H7.5c-0.7,0-1.3,0.6-1.3,1.3v11.8c0,0.7,0.6,1.3,1.3,1.3h18.3
	c0.7,0,1.3-0.6,1.3-1.3V12.4C27.1,11.7,26.5,11.1,25.8,11.1z M16.6,23.4c-2.8,0-5.1-2.3-5.1-5.1s2.3-5.1,5.1-5.1s5.1,2.3,5.1,5.1
	S19.4,23.4,16.6,23.4z M25.4,14.3h-2.3c-0.1,0-0.2-0.1-0.2-0.2v-1.4c0-0.1,0.1-0.2,0.2-0.2h2.3c0.1,0,0.2,0.1,0.2,0.2v1.4
	C25.6,14.2,25.5,14.3,25.4,14.3z"/>
</svg>
