<?xml version="1.0" encoding="utf-8"?>
<!-- Generator: Adobe Illustrator 21.0.0, SVG Export Plug-In . SVG Version: 6.00 Build 0)  -->
<svg version="1.1" id="Layer_1" xmlns="http://www.w3.org/2000/svg" xmlns:xlink="http://www.w3.org/1999/xlink" x="0px" y="0px"
	 viewBox="0 0 118.4 71.1" style="enable-background:new 0 0 118.4 71.1;" xml:space="preserve">
<style type="text/css">
	.st0{opacity:0.5;}
	.st1{fill:#7F7F7F;}
</style>
<g class="st0">
	<path d="M114.6,45.1c-4.4-2.9-11.1-1.8-13.3-7l-2.8,1.6c-2.2,1.3-4.5,3.9-7.4,3.4c-1.1-0.2-1.7-1.7-1.8-2.7
		c-0.5-4.4,1.1-10.5,4.7-13.4c0.5-0.4,1.5,0.4,1.9,1.1c0,3.3-2.9,6.6-1.6,10.1c2.5-0.4,4.8-2.5,6.8-4.4c1-1.4,1.5-3.9,3.8-3.9
		c0.7,6.4,6.8,7,12.3,9.9c0.7,0.4,1.4,1.4,1.2,2.6L114.6,45.1"/>
	<path d="M36.6,41.2c-1.3-1.6-0.6-3.7,0.1-5.6c3-5.8,9.2-10.7,16.3-10.8c0.8,0,2,0.7,2.2,1.6c0.1,0.4,0.4,0.7,0,1.2
		c-0.6,0.4-0.8,0.6-1.4,1.1c-1,0.8-2.2,2.5-4.1,1.6c-0.1-0.1-0.4-0.5-0.6-1.1c-1.2-0.7-2.8,0.3-3.7,0.9c-1.8,1.8-4,4.6-3.4,7.5
		c0.1,0.9,0.7,1.7,1.4,1.9c2.5,0.7,5.5-0.3,7.4-2.2l0.5-4.9l4.8-2.5c0.5,0,1.1,0.2,1.6,0.4c0.1,2.8-0.8,7,2.7,8.7l2.6,1l0.1,0.4
		c-1.8,1.6-5.1,2.4-7.7,1.8c-1.5-0.5-2.6-1.4-3.4-2.9c-3.7,1.8-7.9,4.2-11.9,3.7C38.8,42.8,37.4,42.2,36.6,41.2"/>
	<path class="st1" d="M83.7,44.8c-2.2-1.2-2.6-4.4-3.3-6.8c-0.6-6.1,0.6-12.3,2.4-18.6c-1.2-1.2-3.5-1.4-5.2-1.1
		c-7,5.9-14.4-2.8-21,0.5c-0.3,0.2-0.6,0.7-1.2,0.7c-0.4-0.3-0.6-0.7-0.9-1.2c0.9-1.4,2.3-2.7,4.1-2.8c6.3,2,12.8,4,19.2,0.8
		c1.8-0.3,3.6,0.1,5.5,1.2c1-1.9,1.8-4.6,3.8-5.8c0.8-0.1,1.5,0.7,1.9,1.4c0.8,1.8-1.3,3.9-1.1,5.9c5.9-1.1,11.3-0.9,17.1,2.2
		c0,0.2,0.5,0.6,0,0.9c-5.9-1.2-12.3-2.4-18.1-0.7c-1.6,6.9-2.9,13.9,0.7,20.9c-0.8,1-2.2,1.9-3.8,2.4L83.7,44.8"/>
	<path d="M64.7,42.7c0.1-4.4,0-9.5-2.3-13.9c0.1-1.3,0.8-3.2,2.2-4c1.3-0.1,2.2,1.3,2.9,2.1c0.5,1.1,1.2,2.3,1.4,3.5
		c1.8-2.6,5.2-4.7,8.6-3.5c0.6,0.5,1.6,1.2,1.4,2.3l-2.4,2.1c-0.5,0.7-1.5,0.5-2.1,1.2c-0.9-0.1-2.3-0.6-2.9,0.4l-2.2,6.5L64.7,42.7
		"/>
	<path class="st1" d="M26.1,59.3L25.4,59c-0.9-2.1,1.4-4.7,2.5-6.9l2-2.3c1.2-1.4,4.1-3.2,5.9-1.8c2.4,1.9,5.1,4.4,8.5,2.6
		c4-1.4,7.7-5.5,12.1-3.2c1.8,1,3.8,3.6,6.3,2.6c2.9-1.8,6-3.7,9.4-1.6c1.9,1.2,4.3,3.4,6.9,2.2c6.6-5.8,13.8,4.1,20.9,1.2l0.7,0.2
		c0.7,0.9,0.5,2.2,0,3.3c-1.4,2.9-5.5,2.9-8.3,2.9C85,52,76.8,60.1,70,54.8c-1.6-1.3-3.4-1.3-4.8-0.5c-2.8,1.6-5.4,3.3-8.7,1.1
		c-1.8-1.5-4.1-3.3-6.7-1.8C46,55.9,41.4,59,37,57.1l-3.9-2.9c-2.2-1.7-4.4,2.8-5.8,5L26.1,59.3"/>
	<path d="M21.2,70.9h-1.8v-2.8c0-0.2,0-0.5,0-0.7c0-0.2,0-0.4-0.1-0.5c0-0.1-0.1-0.2-0.3-0.3c-0.1-0.1-0.3-0.1-0.4-0.1
		c-0.2,0-0.3,0-0.4,0.1c-0.2,0-0.3,0.1-0.5,0.2v4h-1.8v-7.8h1.8v2.8c0.3-0.2,0.6-0.4,0.8-0.6c0.3-0.1,0.6-0.2,0.9-0.2
		c0.6,0,1,0.2,1.3,0.5c0.3,0.4,0.4,0.9,0.4,1.6V70.9"/>
	<path d="M24.9,71.1c-0.8,0-1.5-0.3-2-0.7c-0.5-0.5-0.8-1.2-0.8-2.2c0-0.9,0.3-1.7,0.8-2.2c0.5-0.5,1.2-0.8,2-0.8v1.1
		c-0.3,0-0.6,0.1-0.7,0.3c-0.2,0.2-0.3,0.5-0.3,0.8h1.1v1.1h-1.1c0,0.3,0.1,0.5,0.2,0.7c0.1,0.2,0.2,0.3,0.4,0.4
		c0.2,0.1,0.4,0.2,0.5,0.2V71.1 M24.9,65.1c0.1,0,0.1,0,0.2,0c0.8,0,1.5,0.2,1.9,0.7c0.4,0.5,0.7,1.1,0.7,2v0.7h-2.8v-1.1h1.1
		c0-0.4-0.1-0.7-0.3-0.9c-0.1-0.2-0.4-0.3-0.7-0.3c0,0,0,0,0,0V65.1z M25.3,71.1c-0.2,0-0.3,0-0.5,0v-1.3c0.2,0,0.4,0.1,0.7,0.1
		c0.2,0,0.4,0,0.6-0.1c0.2,0,0.4-0.1,0.5-0.2c0.2,0,0.3-0.1,0.4-0.2c0.1-0.1,0.2-0.2,0.3-0.2h0.2v1.5c-0.1,0-0.3,0.1-0.4,0.2
		c-0.1,0-0.3,0.1-0.5,0.1c-0.2,0-0.4,0.1-0.6,0.1C25.9,71.1,25.6,71.1,25.3,71.1z"/>
	<path d="M30.8,65.1v1.3c-0.1,0-0.3,0-0.5,0c-0.2,0-0.4,0-0.7,0.1c-0.3,0.1-0.5,0.2-0.8,0.3h-0.2v-1.4c0.2,0,0.5-0.1,0.8-0.2
		c0.4-0.1,0.8-0.1,1.2-0.1C30.7,65.1,30.8,65.1,30.8,65.1 M30.8,68.4c-0.1,0-0.3,0.1-0.4,0.1c-0.1,0-0.3,0.1-0.4,0.2
		c-0.1,0.1-0.1,0.3-0.1,0.4c0,0.3,0.1,0.4,0.2,0.6c0.1,0.1,0.4,0.1,0.6,0.1h0v1.1c-0.1,0-0.2,0.1-0.3,0.1c-0.1,0-0.4,0.1-0.6,0.1
		c-0.5,0-0.9-0.2-1.2-0.5c-0.4-0.3-0.5-0.7-0.5-1.3c0-0.4,0.1-0.7,0.2-1c0.2-0.2,0.4-0.4,0.7-0.6c0.3-0.2,0.7-0.3,1.1-0.4
		c0.2,0,0.4,0,0.5,0V68.4z M31.7,69.5v-1.2c-0.3,0-0.5,0-0.8,0.1c0,0-0.1,0-0.1,0v-1.1c0.3,0,0.6,0,0.9-0.1v0c0-0.3-0.1-0.5-0.4-0.6
		c-0.1-0.1-0.3-0.1-0.5-0.2v-1.3c0.9,0,1.5,0.2,1.9,0.5c0.5,0.4,0.7,0.8,0.7,1.5v3.8h-1.8v-0.6c-0.1,0.1-0.2,0.2-0.4,0.3
		c-0.1,0.1-0.2,0.1-0.3,0.2c-0.1,0-0.1,0-0.2,0.1v-1.1c0.1,0,0.3,0,0.4-0.1C31.4,69.7,31.5,69.6,31.7,69.5z"/>
	<path d="M37.1,71c0,0-0.1,0-0.2,0.1c-0.1,0-0.3,0-0.5,0c-0.6,0-1.1-0.3-1.5-0.8c-0.4-0.5-0.6-1.3-0.6-2.2c0-0.5,0-0.9,0.2-1.3
		c0.1-0.4,0.3-0.7,0.5-0.9c0.2-0.3,0.5-0.4,0.7-0.6c0.3-0.1,0.6-0.2,0.9-0.2c0.1,0,0.3,0,0.4,0v1.3c-0.3,0-0.5,0.2-0.7,0.4
		c-0.2,0.3-0.3,0.7-0.3,1.2c0,0.5,0.1,0.9,0.3,1.2c0.1,0.2,0.4,0.4,0.7,0.4V71 M39.9,70.9h-1.8v-0.6c-0.1,0.1-0.3,0.2-0.4,0.3
		c-0.1,0.1-0.3,0.2-0.4,0.2c-0.1,0-0.1,0.1-0.2,0.1v-1.3c0,0,0.1,0,0.1,0c0.2,0,0.3,0,0.5-0.1c0.1,0,0.3-0.1,0.4-0.2v-2.8
		c-0.1,0-0.2-0.1-0.3-0.1c-0.1,0-0.3,0-0.4,0c-0.1,0-0.2,0-0.3,0v-1.3c0.1,0,0.3,0,0.4,0.1c0.2,0,0.4,0.1,0.7,0.3v-2.4h1.8V70.9z"/>
	<path d="M43.6,71.1c-0.8,0-1.5-0.3-2-0.7c-0.6-0.5-0.8-1.2-0.8-2.2c0-0.9,0.3-1.7,0.8-2.2c0.5-0.5,1.1-0.8,2-0.8v1.1
		c-0.3,0-0.6,0.1-0.7,0.3c-0.2,0.2-0.3,0.5-0.3,0.8h1.1v1.1h-1.1c0,0.3,0,0.5,0.2,0.7c0.1,0.2,0.2,0.3,0.4,0.4
		c0.1,0.1,0.3,0.2,0.5,0.2V71.1 M43.6,65.1c0,0,0.1,0,0.2,0c0.9,0,1.5,0.2,1.9,0.7c0.4,0.5,0.7,1.1,0.7,2v0.7h-2.8v-1.1h1.1
		c0-0.4-0.1-0.7-0.3-0.9c-0.2-0.2-0.4-0.3-0.7-0.3h0V65.1z M44.1,71.1c-0.2,0-0.4,0-0.5,0v-1.3c0.2,0,0.4,0.1,0.7,0.1
		c0.2,0,0.4,0,0.6-0.1c0.2,0,0.4-0.1,0.5-0.2c0.1,0,0.3-0.1,0.4-0.2c0.1-0.1,0.2-0.2,0.3-0.2h0.2v1.5c-0.1,0-0.3,0.1-0.4,0.2
		c-0.1,0-0.3,0.1-0.5,0.1c-0.2,0-0.4,0.1-0.6,0.1C44.6,71.1,44.3,71.1,44.1,71.1z"/>
	<path d="M57,70.9v-2.8c0-0.3,0-0.5,0-0.7c0-0.2,0-0.4-0.1-0.4c0-0.1-0.1-0.2-0.2-0.3c-0.1-0.1-0.3-0.1-0.4-0.1
		c-0.1,0-0.3,0-0.4,0.1c-0.1,0-0.3,0.1-0.4,0.2v4h-1.8v-2.8c0-0.3,0-0.5,0-0.7c0-0.2,0-0.4-0.1-0.4c0-0.1-0.1-0.2-0.2-0.3
		c-0.1-0.1-0.3-0.1-0.4-0.1c-0.1,0-0.3,0-0.4,0.1c-0.1,0.1-0.3,0.1-0.4,0.2v4h-1.8v-5.6H52v0.6c0.3-0.2,0.6-0.4,0.8-0.6
		c0.2-0.1,0.5-0.2,0.8-0.2c0.3,0,0.7,0,0.9,0.2c0.3,0.2,0.4,0.4,0.6,0.7c0.4-0.3,0.7-0.6,1-0.7c0.3-0.2,0.6-0.2,0.9-0.2
		c0.3,0,0.5,0,0.7,0.1c0.2,0.1,0.4,0.2,0.5,0.4c0.1,0.2,0.3,0.4,0.4,0.7c0.1,0.2,0.1,0.6,0.1,1v3.7H57"/>
	<path d="M62.6,63.2v1.1c0,0,0,0,0,0c-0.1,0-0.2-0.1-0.3-0.2c-0.1-0.1-0.2-0.1-0.3-0.1c-0.2,0-0.3,0-0.4,0.1c0,0.1-0.1,0.3-0.1,0.5
		h-1.1c0-0.5,0.1-0.9,0.4-1.2c0.3-0.3,0.6-0.4,1-0.4c0.2,0,0.3,0,0.4,0.1C62.4,63,62.5,63.1,62.6,63.2 M62.6,71.1
		c-0.9,0-1.6-0.3-2.1-0.8c-0.5-0.5-0.7-1.3-0.7-2.2c0-0.9,0.3-1.7,0.7-2.2c0.5-0.5,1.2-0.8,2.1-0.8v1.3c-0.2,0-0.3,0-0.4,0
		c-0.1,0-0.2,0.2-0.4,0.3c-0.1,0.1-0.2,0.3-0.2,0.5c-0.1,0.2-0.1,0.5-0.1,0.8c0,0.4,0,0.7,0.1,0.8c0,0.2,0.1,0.4,0.2,0.5
		c0.1,0.1,0.2,0.2,0.4,0.3c0.1,0,0.2,0.1,0.4,0.1V71.1z M62.6,64.2v-1.1h0c0.1,0.1,0.2,0.1,0.4,0.2c0.1,0.1,0.2,0.1,0.3,0.1
		c0.1,0,0.3-0.1,0.3-0.2c0.1-0.1,0.1-0.3,0.1-0.4h1.1c0,0.6-0.2,1-0.4,1.2c-0.3,0.3-0.6,0.4-1.1,0.4c-0.1,0-0.3,0-0.4-0.1
		C62.7,64.3,62.6,64.3,62.6,64.2z M65.5,68.1c0,0.9-0.3,1.7-0.7,2.2c-0.5,0.5-1.2,0.8-2.2,0.8v-1.2c0.1,0,0.3,0,0.4-0.1
		c0.1-0.1,0.3-0.2,0.4-0.3c0.1-0.1,0.2-0.3,0.2-0.5c0.1-0.2,0.1-0.5,0.1-0.9c0-0.3,0-0.6-0.1-0.8c0-0.2-0.1-0.4-0.2-0.5
		c-0.1-0.1-0.2-0.2-0.4-0.3c-0.1-0.1-0.3-0.1-0.4-0.1v-1.3c0.9,0,1.6,0.3,2.2,0.8C65.2,66.5,65.5,67.2,65.5,68.1z"/>
	<path d="M68.5,71.1c-0.7,0-1.2-0.2-1.5-0.4c-0.4-0.3-0.5-0.8-0.5-1.5v-2.6h-0.7v-1.2h0.7v-1.6h1.8v1.6H70v1.2h-1.7v2
		c0,0.2,0,0.4,0,0.5c0,0.1,0,0.3,0.1,0.4c0,0.1,0.1,0.2,0.2,0.3c0.1,0.1,0.3,0.1,0.5,0.1c0.1,0,0.2,0,0.4-0.1c0.2,0,0.3,0,0.4-0.1
		H70v1.2c-0.2,0-0.4,0.1-0.6,0.1C69.1,71,68.9,71.1,68.5,71.1"/>
	<path d="M73.1,71.1c-0.8,0-1.5-0.3-2-0.7c-0.5-0.5-0.8-1.2-0.8-2.2c0-0.9,0.3-1.7,0.8-2.2c0.5-0.5,1.2-0.8,2-0.8v1.1
		c-0.3,0-0.6,0.1-0.7,0.3c-0.2,0.2-0.3,0.5-0.3,0.8h1.1v1.1H72c0,0.3,0.1,0.5,0.2,0.7c0.1,0.2,0.2,0.3,0.4,0.4
		c0.2,0.1,0.4,0.2,0.5,0.2V71.1 M73.1,65.1c0.1,0,0.1,0,0.2,0c0.8,0,1.5,0.2,1.9,0.7c0.4,0.5,0.7,1.1,0.7,2v0.7h-2.8v-1.1h1.1
		c0-0.4-0.1-0.7-0.3-0.9c-0.1-0.2-0.4-0.3-0.7-0.3c0,0,0,0,0,0V65.1z M73.6,71.1c-0.2,0-0.3,0-0.5,0v-1.3c0.2,0,0.4,0.1,0.7,0.1
		c0.2,0,0.4,0,0.6-0.1c0.2,0,0.4-0.1,0.5-0.2c0.2,0,0.3-0.1,0.4-0.2c0.1-0.1,0.2-0.2,0.3-0.2h0.2v1.5c-0.1,0-0.3,0.1-0.4,0.2
		c-0.1,0-0.3,0.1-0.5,0.1c-0.2,0-0.4,0.1-0.6,0.1C74.1,71.1,73.9,71.1,73.6,71.1z"/>
	<path d="M78.9,71.1c-0.7,0-1.2-0.2-1.5-0.4c-0.4-0.3-0.5-0.8-0.5-1.5v-2.6h-0.7v-1.2h0.7v-1.6h1.8v1.6h1.7v1.2h-1.7v2
		c0,0.2,0,0.4,0,0.5c0,0.1,0,0.3,0,0.4c0.1,0.1,0.1,0.2,0.3,0.3c0.1,0.1,0.3,0.1,0.5,0.1c0.1,0,0.2,0,0.4-0.1c0.2,0,0.3,0,0.4-0.1
		h0.1v1.2c-0.2,0-0.4,0.1-0.6,0.1C79.5,71,79.2,71.1,78.9,71.1"/>
	<path d="M83.5,71.1c-0.8,0-1.5-0.3-2-0.7c-0.5-0.5-0.8-1.2-0.8-2.2c0-0.9,0.3-1.7,0.8-2.2c0.5-0.5,1.2-0.8,2-0.8v1.1
		c-0.3,0-0.6,0.1-0.7,0.3c-0.2,0.2-0.3,0.5-0.3,0.8h1.1v1.1h-1.1c0,0.3,0.1,0.5,0.2,0.7c0.1,0.2,0.2,0.3,0.3,0.4
		c0.2,0.1,0.4,0.2,0.5,0.2V71.1 M83.5,65.1c0.1,0,0.1,0,0.2,0c0.9,0,1.5,0.2,2,0.7c0.4,0.5,0.7,1.1,0.7,2v0.7h-2.8v-1.1h1.1
		c0-0.4-0.1-0.7-0.3-0.9c-0.1-0.2-0.4-0.3-0.7-0.3c0,0,0,0,0,0V65.1z M83.9,71.1c-0.2,0-0.3,0-0.5,0v-1.3c0.2,0,0.4,0.1,0.7,0.1
		c0.2,0,0.4,0,0.6-0.1c0.2,0,0.4-0.1,0.5-0.2c0.1,0,0.3-0.1,0.4-0.2c0.1-0.1,0.2-0.2,0.3-0.2h0.2v1.5c-0.1,0-0.3,0.1-0.4,0.2
		c-0.1,0-0.3,0.1-0.5,0.1c-0.2,0-0.4,0.1-0.6,0.1C84.5,71.1,84.2,71.1,83.9,71.1z"/>
	<rect x="90.2" y="63.2" width="1.8" height="7.8"/>
	<path d="M95.1,64.5h-1.8v-1.4h1.8V64.5 M95,70.9h-1.8v-5.6H95V70.9z"/>
	<path d="M101.7,70.9h-1.8v-2.8c0-0.2,0-0.5,0-0.7c0-0.2,0-0.4-0.1-0.5c-0.1-0.1-0.2-0.2-0.3-0.3c-0.1-0.1-0.3-0.1-0.5-0.1
		c-0.1,0-0.3,0-0.4,0.1c-0.1,0-0.3,0.1-0.4,0.2v4h-1.8v-5.6h1.8v0.6c0.3-0.2,0.6-0.4,0.8-0.6c0.3-0.1,0.6-0.2,0.9-0.2
		c0.6,0,1,0.2,1.3,0.5c0.3,0.4,0.5,0.9,0.5,1.6V70.9"/>
	<path d="M108.2,70.9h-1.8v-2.8c0-0.2,0-0.5,0-0.7c0-0.2,0-0.4-0.1-0.5c0-0.1-0.1-0.2-0.3-0.3c-0.1-0.1-0.3-0.1-0.4-0.1
		c-0.1,0-0.3,0-0.4,0.1c-0.1,0-0.3,0.1-0.5,0.2v4h-1.8v-5.6h1.8v0.6c0.3-0.2,0.6-0.4,0.8-0.6c0.3-0.1,0.6-0.2,0.9-0.2
		c0.6,0,1,0.2,1.3,0.5c0.3,0.4,0.4,0.9,0.4,1.6V70.9"/>
	<path d="M23.5,46.2c-1.1,0-1.6-1.2-1.9-2.1c-1.5-9.8-0.3-19.7-1.3-29.3c-1.5-1.5-3.7-1.7-5.7-1.1c-1.3,0.5-2.7,1.3-3.1,2.9
		c-0.1,1.4,0.1,2.8,1.3,3.6c0.9,0.7,2.3,1.5,3.7,0.7c1-1,1.8-2.6,0.8-3.9c-0.3-0.4-1.2-0.3-1.6,0.1c-0.4,0.3-0.6,1.1-0.7,1.7
		c-0.6,0.4-1.1,0.1-1.7-0.2c-0.4-1.5,0.4-3.3,1.7-4.3c0.7,0.4,1.5,0.1,2.3,0.6c1.2,0.7,2.2,2.2,2.2,3.9c0.1,1.3-0.7,2.8-1.7,3.6
		c-1.3,1-3.1,1.3-4.7,1c-2.2-0.8-4.3-2.9-4.3-5.5c0-2.4,1.4-4.4,3.3-5.7c2.3-1,4.7-1.6,7.3-0.6l0.6,0.2c0.4-0.4,0-1.3,0-2
		c0.1-0.5,0.5-0.7,1.3-1.1l-9.7,2.3c-3.8,0.9-8.3,4-11.7,2.6l1.3-6.1C13.2,2,29.6-0.6,41.6,0.1c1.1,0.7,0.6,2.6,1.2,3.9
		c-0.5,0.8,0.8,1.8,0,2.9L30,7.6c0.3,0.2,0.3,0.2,0.5,0.3c0.5,0.7,0.4,2.6,1.4,2.7c2-1.8,4.8-2.1,7.5-1.4c1.5,0.8,2.8,1.5,3.4,3.3
		c0.2,2.2-0.2,4.9-2.2,6.1c-1.5,0.7-3.1,0.7-4.7,0c-1.1-0.6-2.1-1.5-2.5-3.1c0.1-1.1,0.4-2.2,1.6-2.7c0.6-0.5,1.7-0.5,2.6-0.4
		c1.1,0.6,2.2,1.7,1.5,2.8l-0.4,0.2c-0.5-0.2-1.1-0.1-1.4-1c-0.4-0.3-0.7-0.3-1.2-0.3c-0.5,0.1-1.2,1-0.7,1.9
		c0.4,0.7,1.4,1.5,2.7,1.5c0.2,0,0.7-0.1,1-0.2c1.6-0.9,2.4-2.8,1.5-4.9c-0.5-1.3-2.7-2.1-4.4-1.7c-1.5,0.3-2.4,1.1-3.4,1.9
		c-0.1,0.2,0,0.6-0.1,1c-1.1,9.2-0.7,19,0.6,28.6c0,0.1,0.1,0.4,0.4,0.7c-0.4,0.4-1,0.7-1.9,1L28.4,4.7L27,4.9l3.5,39.6
		c-0.4,0.1-0.9,0.3-1.4,0.4L25.5,5L24,5.2l3.5,39.9c-0.5,0.1-1,0.2-1.4,0.4L22.5,5.3l-1.3,0.1l3.6,40.3C24.3,45.8,24,46,23.8,46
		L23.5,46.2"/>
</g>
</svg>
