<?xml version="1.0" encoding="utf-8"?>
<!-- Generator: Adobe Illustrator 21.0.0, SVG Export Plug-In . SVG Version: 6.00 Build 0)  -->
<svg version="1.1" id="Layer_1" xmlns="http://www.w3.org/2000/svg" xmlns:xlink="http://www.w3.org/1999/xlink" x="0px" y="0px"
	 viewBox="0 0 199.4 47.7" style="enable-background:new 0 0 199.4 47.7;" xml:space="preserve">
<style type="text/css">
	.st0{opacity:0.5;}
	.st1{fill:#202020;}
	.st2{fill:#5B5B5B;}
</style>
<g class="st0">
	<g>
		<path class="st1" d="M24.7,30.3c0.7,0.1,1.1,0.8,1,1.5c-0.1,0.7-0.8,1.1-1.5,1c-0.7-0.1-1.1-0.8-1-1.5
			C23.4,30.6,24,30.2,24.7,30.3 M24.9,29.4c-1.2-0.3-2.3,0.5-2.6,1.7c-0.3,1.2,0.5,2.3,1.7,2.6c1.2,0.3,2.3-0.5,2.6-1.7
			C26.9,30.8,26.1,29.7,24.9,29.4L24.9,29.4z"/>
		<path class="st1" d="M12.2,27.2c0.5,0,1,0.4,1,1s-0.4,1-1,1c-0.5,0-1-0.4-1-1S11.7,27.2,12.2,27.2 M12.2,26.4
			c-1,0-1.8,0.8-1.8,1.8c0,1,0.8,1.8,1.8,1.8c1,0,1.8-0.8,1.8-1.8C14,27.2,13.2,26.4,12.2,26.4L12.2,26.4z"/>
		<path class="st1" d="M18.1,21.2c0.5,0,0.9,0.4,0.9,0.9c0,0.5-0.4,0.9-0.9,0.9c-0.5,0-0.9-0.4-0.9-0.9
			C17.2,21.6,17.6,21.2,18.1,21.2 M18.1,20.4c-0.9,0-1.7,0.8-1.7,1.7c0,0.9,0.8,1.7,1.7,1.7c0.9,0,1.7-0.8,1.7-1.7
			C19.8,21.2,19.1,20.4,18.1,20.4L18.1,20.4z"/>
		<path class="st1" d="M27.5,19.3c0.5,0.2,0.8,0.7,0.6,1.2C28,20.9,27.4,21.2,27,21c-0.5-0.2-0.7-0.7-0.6-1.1
			C26.5,19.4,27,19.1,27.5,19.3 M27.7,18.6c-0.9-0.3-1.8,0.2-2.1,1.1c-0.3,0.9,0.2,1.8,1.1,2.1c0.9,0.3,1.8-0.2,2.1-1.1
			C29.1,19.8,28.6,18.8,27.7,18.6L27.7,18.6z"/>
		<path class="st1" d="M10.8,17.8c0.5,0,0.9,0.4,0.9,0.9c0,0.5-0.4,0.9-0.9,0.9c-0.5,0-0.9-0.4-0.9-0.9
			C9.9,18.2,10.3,17.8,10.8,17.8 M10.8,17c-0.9,0-1.7,0.8-1.7,1.7c0,0.9,0.8,1.7,1.7,1.7c0.9,0,1.7-0.8,1.7-1.7
			C12.5,17.8,11.8,17,10.8,17L10.8,17z"/>
		<path class="st1" d="M20.3,12.5c0.4,0,0.7,0.3,0.7,0.7c0,0.4-0.3,0.7-0.7,0.7c-0.4,0-0.7-0.3-0.7-0.7C19.7,12.8,20,12.5,20.3,12.5
			 M20.3,11.9c-0.7,0-1.3,0.6-1.3,1.3c0,0.7,0.6,1.3,1.3,1.3c0.7,0,1.3-0.6,1.3-1.3C21.7,12.5,21.1,11.9,20.3,11.9L20.3,11.9z"/>
		<path class="st1" d="M14.4,12.4c0.4,0,0.7,0.3,0.7,0.7c0,0.4-0.3,0.7-0.7,0.7c-0.4,0-0.7-0.3-0.7-0.7C13.7,12.7,14,12.4,14.4,12.4
			 M14.4,11.8c-0.7,0-1.3,0.6-1.3,1.3c0,0.7,0.6,1.3,1.3,1.3c0.7,0,1.3-0.6,1.3-1.3C15.7,12.3,15.1,11.8,14.4,11.8L14.4,11.8z"/>
		<path class="st1" d="M10.1,11.4c0.4,0,0.7,0.3,0.7,0.7c0,0.4-0.3,0.7-0.7,0.7c-0.4,0-0.7-0.3-0.7-0.7C9.4,11.8,9.7,11.4,10.1,11.4
			 M10.1,10.8c-0.7,0-1.3,0.6-1.3,1.3c0,0.7,0.6,1.3,1.3,1.3c0.7,0,1.3-0.6,1.3-1.3C11.4,11.4,10.8,10.8,10.1,10.8L10.1,10.8z"/>
		<path class="st1" d="M6.3,10.1c0.4,0,0.7,0.3,0.7,0.7c0,0.4-0.3,0.7-0.7,0.7c-0.4,0-0.7-0.3-0.7-0.7C5.6,10.4,5.9,10.1,6.3,10.1
			 M6.3,9.5C5.6,9.5,5,10.1,5,10.8c0,0.7,0.6,1.3,1.3,1.3c0.7,0,1.3-0.6,1.3-1.3C7.6,10.1,7,9.5,6.3,9.5L6.3,9.5z"/>
		<path class="st1" d="M5.1,4.4c0.4,0,0.7,0.3,0.7,0.7c0,0.4-0.3,0.7-0.7,0.7C4.8,5.7,4.5,5.4,4.5,5C4.5,4.7,4.8,4.4,5.1,4.4
			 M5.1,3.9C4.5,3.9,4,4.4,4,5c0,0.6,0.5,1.1,1.1,1.1c0.6,0,1.1-0.5,1.1-1.1C6.3,4.4,5.8,3.9,5.1,3.9L5.1,3.9z"/>
		<path class="st1" d="M8.8,3c0.4,0,0.7,0.3,0.7,0.7c0,0.4-0.3,0.7-0.7,0.7C8.4,4.3,8.1,4,8.1,3.7C8.1,3.3,8.4,3,8.8,3 M8.8,2.5
			C8.2,2.5,7.7,3,7.7,3.7c0,0.6,0.5,1.1,1.1,1.1c0.6,0,1.1-0.5,1.1-1.1C9.9,3,9.4,2.5,8.8,2.5L8.8,2.5z"/>
		<path class="st1" d="M12.9,1.4c0.4,0,0.7,0.3,0.7,0.7c0,0.4-0.3,0.7-0.7,0.7c-0.4,0-0.7-0.3-0.7-0.7C12.2,1.7,12.5,1.4,12.9,1.4
			 M12.9,0.9c-0.6,0-1.1,0.5-1.1,1.1c0,0.6,0.5,1.1,1.1,1.1C13.5,3.2,14,2.7,14,2C14,1.4,13.5,0.9,12.9,0.9L12.9,0.9z"/>
		<path class="st1" d="M16,3.8c0.3,0,0.6,0.2,0.6,0.6c0,0.3-0.2,0.6-0.6,0.6c-0.3,0-0.6-0.2-0.6-0.6C15.5,4.1,15.7,3.8,16,3.8
			 M16,3.4c-0.6,0-1,0.5-1,1c0,0.6,0.5,1,1,1c0.6,0,1-0.5,1-1C17,3.8,16.6,3.4,16,3.4L16,3.4z"/>
		<path class="st1" d="M21.4,5.7c0.3,0,0.6,0.2,0.6,0.6c0,0.3-0.2,0.6-0.6,0.6c-0.3,0-0.6-0.2-0.6-0.6C20.8,5.9,21.1,5.7,21.4,5.7
			 M21.4,5.2c-0.6,0-1,0.5-1,1c0,0.6,0.5,1,1,1c0.6,0,1-0.5,1-1C22.4,5.7,21.9,5.2,21.4,5.2L21.4,5.2z"/>
		<path class="st1" d="M23.5,2.6c0.3,0,0.6,0.2,0.6,0.6c0,0.3-0.2,0.6-0.6,0.6c-0.3,0-0.6-0.2-0.6-0.6C23,2.9,23.2,2.6,23.5,2.6
			 M23.5,2.1c-0.6,0-1,0.5-1,1c0,0.6,0.5,1,1,1c0.6,0,1-0.5,1-1C24.5,2.6,24.1,2.1,23.5,2.1L23.5,2.1z"/>
		<path class="st1" d="M29.3,4.2c0.3,0,0.6,0.2,0.6,0.6c0,0.3-0.2,0.6-0.6,0.6c-0.3,0-0.6-0.2-0.6-0.6C28.7,4.5,29,4.2,29.3,4.2
			 M29.3,3.8c-0.6,0-1,0.5-1,1c0,0.6,0.5,1,1,1c0.6,0,1-0.5,1-1C30.3,4.2,29.9,3.8,29.3,3.8L29.3,3.8z"/>
		<path class="st1" d="M32.8,2.1c0.3,0,0.6,0.2,0.6,0.6c0,0.3-0.2,0.6-0.6,0.6c-0.3,0-0.6-0.2-0.6-0.6C32.2,2.3,32.5,2.1,32.8,2.1
			 M32.8,1.6c-0.6,0-1,0.5-1,1c0,0.6,0.5,1,1,1c0.6,0,1-0.5,1-1C33.8,2.1,33.4,1.6,32.8,1.6L32.8,1.6z"/>
		<path class="st1" d="M35.9,0.5c0.3,0,0.6,0.2,0.6,0.6s-0.2,0.6-0.6,0.6c-0.3,0-0.6-0.2-0.6-0.6S35.6,0.5,35.9,0.5 M35.9,0
			c-0.6,0-1,0.5-1,1c0,0.6,0.5,1,1,1c0.6,0,1-0.5,1-1C37,0.5,36.5,0,35.9,0L35.9,0z"/>
		<path class="st1" d="M40,0.8c0.3,0,0.6,0.2,0.6,0.6c0,0.3-0.2,0.6-0.6,0.6c-0.3,0-0.6-0.2-0.6-0.6C39.4,1.1,39.7,0.8,40,0.8
			 M40,0.4c-0.6,0-1,0.5-1,1c0,0.6,0.5,1,1,1c0.6,0,1-0.5,1-1C41,0.8,40.5,0.4,40,0.4L40,0.4z"/>
		<path class="st1" d="M43.5,1.6c0.3,0,0.6,0.2,0.6,0.6c0,0.3-0.2,0.6-0.6,0.6c-0.3,0-0.6-0.2-0.6-0.6C43,1.9,43.2,1.6,43.5,1.6
			 M43.5,1.2c-0.6,0-1,0.5-1,1c0,0.6,0.5,1,1,1c0.6,0,1-0.5,1-1C44.5,1.6,44.1,1.2,43.5,1.2L43.5,1.2z"/>
		<path class="st1" d="M19.4,1.1c0.3,0,0.5,0.2,0.5,0.5c0,0.3-0.2,0.5-0.5,0.5c-0.3,0-0.5-0.2-0.5-0.5C18.9,1.3,19.1,1.1,19.4,1.1
			 M19.4,0.6c-0.5,0-1,0.4-1,1c0,0.5,0.4,1,1,1c0.5,0,1-0.4,1-1C20.3,1.1,19.9,0.6,19.4,0.6L19.4,0.6z"/>
		<path class="st1" d="M2.6,11.1c0.4,0,0.7,0.3,0.7,0.7c0,0.4-0.3,0.7-0.7,0.7c-0.4,0-0.7-0.3-0.7-0.7C1.9,11.4,2.2,11.1,2.6,11.1
			 M2.6,10.5c-0.7,0-1.3,0.6-1.3,1.3s0.6,1.3,1.3,1.3c0.7,0,1.3-0.6,1.3-1.3S3.3,10.5,2.6,10.5L2.6,10.5z"/>
		<path class="st1" d="M25.7,9.8c0.4,0,0.7,0.3,0.7,0.7c0,0.4-0.3,0.7-0.7,0.7c-0.4,0-0.7-0.3-0.7-0.7C25.1,10.1,25.4,9.8,25.7,9.8
			 M25.7,9.2c-0.7,0-1.3,0.6-1.3,1.3c0,0.7,0.6,1.3,1.3,1.3c0.7,0,1.3-0.6,1.3-1.3C27,9.7,26.5,9.2,25.7,9.2L25.7,9.2z"/>
		<path class="st1" d="M31.1,9.1c0.4,0,0.7,0.3,0.7,0.7c0,0.4-0.3,0.7-0.7,0.7c-0.4,0-0.7-0.3-0.7-0.7C30.4,9.4,30.7,9.1,31.1,9.1
			 M31.1,8.5c-0.7,0-1.3,0.6-1.3,1.3c0,0.7,0.6,1.3,1.3,1.3c0.7,0,1.3-0.6,1.3-1.3C32.4,9.1,31.8,8.5,31.1,8.5L31.1,8.5z"/>
		<path class="st1" d="M35.5,7.7c0.4,0,0.7,0.3,0.7,0.7c0,0.4-0.3,0.7-0.7,0.7c-0.4,0-0.7-0.3-0.7-0.7C34.8,8,35.1,7.7,35.5,7.7
			 M35.5,7.1c-0.7,0-1.3,0.6-1.3,1.3c0,0.7,0.6,1.3,1.3,1.3c0.7,0,1.3-0.6,1.3-1.3C36.8,7.7,36.2,7.1,35.5,7.1L35.5,7.1z"/>
		<path class="st1" d="M41.7,7.5c0.4,0,0.7,0.3,0.7,0.7c0,0.4-0.3,0.7-0.7,0.7c-0.4,0-0.7-0.3-0.7-0.7C41,7.8,41.3,7.5,41.7,7.5
			 M41.7,6.9c-0.7,0-1.3,0.6-1.3,1.3c0,0.7,0.6,1.3,1.3,1.3c0.7,0,1.3-0.6,1.3-1.3C43,7.4,42.4,6.9,41.7,6.9L41.7,6.9z"/>
		<path class="st1" d="M46.8,5.9c0.4,0,0.7,0.3,0.7,0.7c0,0.4-0.3,0.7-0.7,0.7c-0.4,0-0.7-0.3-0.7-0.7C46.1,6.2,46.4,5.9,46.8,5.9
			 M46.8,5.2c-0.7,0-1.3,0.6-1.3,1.3c0,0.7,0.6,1.3,1.3,1.3c0.7,0,1.3-0.6,1.3-1.3C48.1,5.8,47.5,5.2,46.8,5.2L46.8,5.2z"/>
		<path class="st1" d="M41.3,21.2c0.5,0,0.9,0.4,0.9,0.9c0,0.5-0.4,0.9-0.9,0.9c-0.5,0-0.9-0.4-0.9-0.9
			C40.3,21.6,40.8,21.2,41.3,21.2 M41.3,20.4c-0.9,0-1.7,0.8-1.7,1.7c0,0.9,0.8,1.7,1.7,1.7c0.9,0,1.7-0.8,1.7-1.7
			C43,21.2,42.2,20.4,41.3,20.4L41.3,20.4z"/>
		<path class="st1" d="M5.6,20.3c0.5,0,0.9,0.4,0.9,0.9c0,0.5-0.4,0.9-0.9,0.9c-0.5,0-0.9-0.4-0.9-0.9C4.7,20.7,5.1,20.3,5.6,20.3
			 M5.6,19.5c-0.9,0-1.7,0.8-1.7,1.7s0.8,1.7,1.7,1.7c0.9,0,1.7-0.8,1.7-1.7S6.5,19.5,5.6,19.5L5.6,19.5z"/>
		<path class="st2" d="M34.5,17.8c0.5,0,0.9,0.4,0.9,0.9c0,0.5-0.4,0.9-0.9,0.9c-0.5,0-0.9-0.4-0.9-0.9C33.6,18.2,34,17.8,34.5,17.8
			 M34.5,17c-0.9,0-1.7,0.8-1.7,1.7c0,0.9,0.8,1.7,1.7,1.7c0.9,0,1.7-0.8,1.7-1.7C36.2,17.8,35.4,17,34.5,17L34.5,17z"/>
		<path class="st1" d="M47.5,14.9c0.4,0,0.8,0.4,0.8,0.8c0,0.4-0.4,0.8-0.8,0.8c-0.5,0-0.8-0.4-0.8-0.8C46.7,15.3,47,14.9,47.5,14.9
			 M47.5,14.1c-0.9,0-1.6,0.7-1.6,1.6c0,0.9,0.7,1.6,1.6,1.6c0.9,0,1.6-0.7,1.6-1.6C49.1,14.8,48.4,14.1,47.5,14.1L47.5,14.1z"/>
		<path class="st1" d="M34.2,27.9c0.5,0,1,0.4,1,1c0,0.5-0.4,1-1,1c-0.5,0-1-0.4-1-1C33.2,28.4,33.6,27.9,34.2,27.9 M34.2,27.2
			c-1,0-1.8,0.8-1.8,1.8c0,1,0.8,1.8,1.8,1.8c1,0,1.8-0.8,1.8-1.8C35.9,27.9,35.1,27.2,34.2,27.2L34.2,27.2z"/>
		<path class="st1" d="M38.8,36.3c0,0-0.1-0.3-0.1-0.9c-0.1-0.6-0.1-1.4-0.2-2.4c0-0.5,0-1,0-1.6c0-0.6,0-1.2,0.1-1.8
			c0.1-0.6,0.1-1.3,0.3-2c0.1-0.3,0.2-0.7,0.3-1c0.1-0.3,0.3-0.7,0.5-1c0.1-0.2,0.3-0.3,0.4-0.5c0.2-0.2,0.4-0.3,0.6-0.4
			c0.2-0.1,0.5-0.2,0.8-0.2c0,0,0.1,0,0.1,0l0,0l0,0l0,0l0.1,0c0,0,0.1,0,0.1,0l0.1,0c0.1,0,0.1,0,0.2,0c0.2,0.1,0.5,0.2,0.7,0.3
			c0.2,0.1,0.4,0.3,0.5,0.5c0.3,0.4,0.4,0.7,0.5,1.1c0.2,0.7,0.2,1.4,0.2,2c0,0.6-0.1,1.2-0.2,1.7c-0.1,0.5-0.2,1-0.3,1.4
			c-0.1,0.4-0.2,0.7-0.3,1c-0.1,0.3-0.2,0.5-0.2,0.6c-0.1,0.1-0.1,0.2-0.1,0.2c-0.1,0.2-0.3,0.2-0.4,0.2c-0.1-0.1-0.2-0.2-0.2-0.3v0
			c0,0,0-0.3,0.1-0.9c0-0.3,0.1-0.6,0.1-1c0-0.4,0.1-0.8,0.1-1.3c0-0.5,0.1-1,0-1.5c0-0.5-0.1-1.1-0.2-1.6c-0.1-0.2-0.2-0.4-0.3-0.6
			c-0.1-0.1-0.2-0.2-0.4-0.3c0,0,0,0-0.1,0l0,0c0,0,0,0,0,0l-0.1,0h0c0,0,0,0,0,0h0h0c0,0,0,0,0,0c-0.1,0-0.1,0-0.2,0
			c-0.1,0.1-0.3,0.2-0.4,0.4c-0.1,0.2-0.3,0.5-0.4,0.7c-0.1,0.3-0.2,0.6-0.3,0.9c-0.2,0.6-0.3,1.2-0.4,1.8c-0.1,0.6-0.2,1.2-0.2,1.7
			c-0.1,0.6-0.1,1.1-0.1,1.6c0,0.5-0.1,0.9-0.1,1.3c0,0.4,0,0.7,0,1c0,0.6,0,0.9,0,0.9v0c0,0.2-0.1,0.3-0.3,0.3
			C39,36.5,38.9,36.4,38.8,36.3z"/>
		<path class="st1" d="M20.5,46.1C20.5,46.1,20.5,46,20.5,46.1c0-0.1-0.1-0.2-0.1-0.3c-0.1-0.2-0.1-0.5-0.2-0.8
			c-0.1-0.4-0.2-0.8-0.2-1.3c-0.1-0.5-0.1-1.1-0.2-1.8c0-0.7,0-1.4,0.1-2.1c0.1-0.8,0.3-1.6,0.6-2.4l0.1-0.2l0.1-0.2
			c0.1-0.1,0.1-0.2,0.2-0.3c0.1-0.1,0.1-0.2,0.2-0.3l0.1-0.2l0.1-0.1c0.3-0.4,0.7-0.7,1.2-1l0.4-0.2c0.1-0.1,0.2-0.1,0.4-0.1
			c0.2-0.1,0.5-0.1,0.8-0.2c0.1,0,0.3,0,0.4,0l0.2,0l0.1,0l0,0c0,0,0,0,0,0h0h0h0.2l0.1,0l0.1,0l0.2,0c0.1,0,0.1,0,0.2,0
			c0.5,0.1,1.1,0.3,1.6,0.6c0.2,0.2,0.4,0.4,0.6,0.6c0.2,0.2,0.3,0.4,0.5,0.6c0.5,0.9,0.7,1.8,0.9,2.6c0.1,0.4,0.1,0.8,0.1,1.2
			c0,0.4,0,0.8,0,1.2c0,0.8-0.1,1.5-0.2,2.1c-0.1,0.6-0.2,1.2-0.3,1.7c-0.1,0.5-0.2,0.9-0.3,1.3c-0.1,0.4-0.2,0.6-0.2,0.8
			c-0.1,0.2-0.1,0.3-0.1,0.3c-0.1,0.2-0.2,0.2-0.4,0.2c-0.1-0.1-0.2-0.2-0.2-0.3l0,0c0,0,0-0.1,0-0.3c0-0.2,0-0.5,0.1-0.8
			c0-0.4,0.1-0.8,0.1-1.3c0-0.5,0-1.1,0.1-1.7c0-0.6,0-1.3,0-2c0-0.7-0.1-1.4-0.3-2.1c-0.1-0.7-0.4-1.4-0.7-1.9
			c-0.1-0.1-0.2-0.2-0.3-0.3c-0.1-0.1-0.2-0.2-0.3-0.3c-0.2-0.1-0.5-0.2-0.8-0.3c0,0-0.1,0-0.1,0l-0.1,0l0,0l-0.1,0h-0.2l-0.2,0
			c-0.1,0-0.2,0-0.2,0c-0.2,0-0.3,0.1-0.4,0.1c-0.1,0-0.1,0-0.2,0.1c-0.1,0-0.1,0.1-0.2,0.1c-0.2,0.1-0.5,0.3-0.7,0.6l-0.1,0.1
			l-0.1,0.1l-0.1,0.2c0,0.1-0.1,0.1-0.1,0.2l-0.1,0.1L22.2,38c0,0.1-0.1,0.1-0.1,0.2c0,0.1-0.1,0.2-0.1,0.2
			c-0.1,0.2-0.1,0.3-0.2,0.5c-0.1,0.2-0.1,0.3-0.1,0.5c0,0.2-0.1,0.3-0.1,0.5c-0.1,0.7-0.2,1.3-0.3,1.9c0,0.3,0,0.6-0.1,0.9
			c0,0.3,0,0.5,0,0.8c0,0.5,0,0.9,0,1.3c0,0.4,0,0.6,0,0.8c0,0.2,0,0.3,0,0.3v0c0,0.2-0.1,0.4-0.3,0.4
			C20.7,46.3,20.6,46.2,20.5,46.1z"/>
		<path class="st1" d="M31.6,44.3c0,0,0-0.1-0.1-0.2c0-0.2-0.1-0.4-0.2-0.7c-0.1-0.3-0.2-0.6-0.2-1c-0.1-0.4-0.2-0.9-0.2-1.4
			c-0.1-0.5-0.1-1-0.2-1.6c0-0.6-0.1-1.2-0.1-1.9c0-0.6,0.1-1.3,0.2-2c0.2-0.7,0.4-1.4,0.9-2.1c0.2-0.3,0.5-0.7,0.9-0.9
			c0.4-0.2,0.8-0.4,1.2-0.5c0.8-0.1,1.6-0.1,2.4,0.3c0.4,0.2,0.7,0.5,0.9,0.8c0.2,0.3,0.4,0.7,0.5,1c0.2,0.7,0.2,1.3,0.2,1.8
			c0,0.5-0.1,1-0.1,1.4c-0.1,0.4-0.2,0.8-0.3,1.1c-0.1,0.3-0.2,0.5-0.2,0.7c0,0.1-0.1,0.1-0.1,0.2c0,0,0,0.1,0,0.1
			c-0.1,0.2-0.3,0.3-0.5,0.2c-0.1-0.1-0.2-0.2-0.2-0.3v0c0,0,0-0.1,0-0.2c0-0.2,0-0.4,0-0.7c0-0.3,0-0.6,0-1c0-0.4,0-0.8-0.1-1.3
			c-0.1-0.4-0.2-0.9-0.3-1.3c-0.1-0.2-0.2-0.4-0.3-0.5c-0.1-0.1-0.3-0.3-0.4-0.3c-0.2-0.1-0.4-0.1-0.6-0.1c-0.1,0-0.1,0-0.2,0
			c-0.1,0-0.1,0-0.2,0c0,0,0,0-0.1,0l-0.1,0c-0.1,0-0.1,0-0.2,0c-0.2,0-0.4,0.1-0.6,0.2c-0.2,0.1-0.3,0.3-0.5,0.5
			c-0.3,0.4-0.5,0.9-0.6,1.5c-0.1,0.6-0.2,1.2-0.3,1.7c-0.1,0.6-0.1,1.2-0.1,1.7c0,0.5,0,1.1,0,1.6c0,0.5,0,0.9,0.1,1.3
			c0,0.4,0,0.7,0.1,1c0,0.3,0,0.5,0.1,0.7c0,0.2,0,0.2,0,0.2v0c0,0.2-0.1,0.4-0.3,0.4C31.8,44.6,31.6,44.5,31.6,44.3z"/>
		<path class="st1" d="M44.7,29.5c0,0,0-0.1,0-0.3c0-0.2,0-0.4-0.1-0.7c0-0.3-0.1-0.7-0.1-1.1c0-0.4-0.1-0.9-0.1-1.4
			c0-0.5,0-1.1,0-1.7c0-0.6,0.1-1.2,0.1-1.9c0.1-0.7,0.2-1.4,0.4-2.1c0.1-0.4,0.2-0.7,0.4-1.1c0.2-0.4,0.4-0.7,0.8-1.1
			c0.2-0.2,0.4-0.3,0.7-0.4c0.3-0.1,0.5-0.1,0.8-0.1l0.1,0l0.1,0l0.1,0l0,0l0,0c0.1,0,0.1,0,0.2,0c0.1,0,0.1,0,0.2,0.1
			c0.2,0.1,0.5,0.2,0.7,0.4c0.2,0.2,0.4,0.4,0.5,0.6c0.1,0.2,0.2,0.4,0.3,0.6c0.1,0.4,0.2,0.8,0.2,1.2c0,0.7-0.1,1.4-0.3,2
			c-0.1,0.6-0.3,1.2-0.5,1.7c-0.2,0.5-0.4,0.9-0.5,1.3c-0.2,0.4-0.3,0.7-0.5,1c-0.3,0.5-0.5,0.9-0.5,0.9l0,0
			c-0.1,0.2-0.3,0.2-0.5,0.1c-0.2-0.1-0.2-0.3-0.2-0.4c0,0,0.1-0.3,0.3-0.9c0.2-0.6,0.5-1.4,0.7-2.3c0.1-0.5,0.3-1,0.4-1.6
			c0.1-0.6,0.2-1.1,0.1-1.7c0-0.3-0.1-0.5-0.1-0.8c-0.1-0.2-0.2-0.4-0.3-0.5c-0.1-0.1-0.1-0.1-0.2-0.1l-0.1,0c0,0,0,0-0.1,0l0,0l0,0
			l-0.1,0l0,0l0,0l0,0c0,0,0,0,0,0l0,0c-0.2,0-0.3,0-0.5,0.2c-0.2,0.1-0.3,0.3-0.4,0.6c-0.1,0.3-0.2,0.5-0.3,0.8
			c-0.2,0.6-0.3,1.2-0.4,1.8c-0.1,0.6-0.2,1.2-0.2,1.8c0,0.6-0.1,1.1-0.1,1.6c0,0.5,0,1-0.1,1.4c0,0.4,0,0.8,0,1.1
			c0,0.6,0,0.9,0,0.9v0c0,0.2-0.2,0.4-0.4,0.4C44.9,29.8,44.7,29.7,44.7,29.5z"/>
		<path class="st1" d="M12.5,40.2c0,0-0.1-0.1-0.1-0.2c-0.1-0.2-0.2-0.4-0.3-0.7c-0.1-0.3-0.3-0.7-0.5-1.1c-0.2-0.4-0.3-0.9-0.5-1.5
			c-0.2-0.5-0.3-1.1-0.4-1.8c0-0.3-0.1-0.7-0.1-1.1c0-0.4,0-0.8,0.1-1.2c0.1-0.4,0.3-0.8,0.6-1.2c0.3-0.4,0.8-0.7,1.3-0.8l0,0l0.1,0
			l0.1,0l0.1,0l0.1,0c0.1,0,0.3,0,0.4,0c0.3,0,0.5,0.1,0.8,0.2c0.5,0.2,0.8,0.6,1,0.9c0.5,0.7,0.9,1.4,1.2,2.1
			c0.3,0.7,0.5,1.4,0.7,2.1c0.2,0.7,0.4,1.3,0.5,2c0.1,0.6,0.2,1.2,0.3,1.8c0.2,1.1,0.3,2,0.4,2.7c0,0.3,0.1,0.6,0.1,0.7
			c0,0.2,0,0.3,0,0.3c0,0.2-0.1,0.4-0.3,0.4c-0.2,0-0.3-0.1-0.4-0.3l0,0c0,0,0-0.1-0.1-0.3c0-0.2-0.1-0.4-0.2-0.7
			c-0.1-0.6-0.3-1.5-0.6-2.6c-0.1-0.5-0.3-1.1-0.5-1.7c-0.2-0.6-0.4-1.2-0.6-1.9c-0.2-0.6-0.5-1.3-0.7-1.9c-0.1-0.3-0.3-0.6-0.5-0.9
			c-0.2-0.3-0.3-0.6-0.5-0.8c-0.2-0.2-0.4-0.4-0.6-0.5c-0.1,0-0.2-0.1-0.3-0.1c0,0-0.1,0-0.1,0l0,0c0,0,0,0,0,0c0,0,0,0,0,0l0,0l0,0
			l0,0c0,0,0,0,0,0l0,0c-0.2,0.1-0.4,0.2-0.6,0.3c-0.1,0.2-0.2,0.4-0.3,0.6c-0.1,0.5-0.2,1.1-0.1,1.7c0,0.6,0.1,1.1,0.2,1.7
			c0.1,0.5,0.2,1,0.3,1.4c0.1,0.4,0.2,0.8,0.3,1.1c0.1,0.3,0.2,0.5,0.2,0.7c0,0.2,0.1,0.2,0.1,0.2l0,0c0.1,0.2,0,0.4-0.2,0.4
			C12.7,40.4,12.6,40.4,12.5,40.2z"/>
		<path class="st1" d="M5.8,34c0,0,0-0.1-0.1-0.2c-0.1-0.2-0.2-0.4-0.4-0.7C5.2,32.8,5,32.5,4.8,32c-0.2-0.4-0.4-0.9-0.6-1.5
			c-0.2-0.5-0.4-1.1-0.5-1.8c-0.2-0.7-0.3-1.4-0.3-2.2c0-0.4,0.1-0.8,0.2-1.3c0.1-0.4,0.5-0.9,0.9-1.2c0.4-0.3,1-0.4,1.4-0.4
			c0.1,0,0.1,0,0.2,0c0.1,0,0.1,0,0.2,0c0.1,0,0.1,0,0.2,0c0.1,0,0.1,0,0.2,0.1C7,24,7.2,24.1,7.4,24.3c0.4,0.3,0.7,0.7,0.9,1
			c0.2,0.4,0.4,0.7,0.5,1.1c0.3,0.8,0.4,1.5,0.5,2.2c0.2,1.4,0.3,2.8,0.3,3.9c0,0.6,0,1.1,0,1.6c0,0.5,0,0.9-0.1,1.2
			c0,0.3-0.1,0.6-0.1,0.8c0,0.2,0,0.3,0,0.3c0,0.2-0.2,0.3-0.4,0.3c-0.2,0-0.3-0.2-0.3-0.3l0,0c0,0,0-0.1,0-0.3c0-0.2,0-0.4,0-0.8
			c0-0.3,0-0.7-0.1-1.2c0-0.5-0.1-1-0.1-1.5c0-0.6-0.1-1.2-0.2-1.8c-0.1-0.6-0.2-1.3-0.3-1.9c-0.1-0.7-0.3-1.3-0.5-2
			c-0.1-0.3-0.3-0.6-0.4-0.9c-0.2-0.3-0.4-0.5-0.6-0.6c-0.1-0.1-0.2-0.1-0.3-0.2c0,0-0.1,0-0.1,0c0,0-0.1,0-0.1,0c0,0-0.1,0-0.1,0
			c0,0,0,0-0.1,0c-0.3,0-0.5,0.1-0.7,0.2c-0.2,0.1-0.3,0.3-0.4,0.5c-0.1,0.2-0.1,0.5-0.2,0.8c0,0.6,0.1,1.3,0.2,1.9
			c0.1,0.6,0.3,1.2,0.4,1.7c0.3,1.1,0.6,1.9,0.8,2.5c0.1,0.3,0.2,0.5,0.3,0.7c0.1,0.2,0.1,0.2,0.1,0.2l0,0c0.1,0.2,0,0.4-0.2,0.4
			C6.1,34.2,5.9,34.2,5.8,34z"/>
		<path class="st1" d="M18.6,34.8c-1.1-2-1.5-3.1-1.6-3.5c-0.1-0.4-0.3-0.8-0.4-1.2c-0.1-0.4-0.2-0.9-0.2-1.3c0-0.4-0.1-0.9,0-1.4
			c0.1-0.5,0.2-1,0.4-1.4c0.3-0.5,0.6-0.9,1.1-1.2c0.4-0.3,0.9-0.4,1.4-0.5l0,0h0c0.3,0,0.6,0,0.9,0c0.3,0,0.6,0.1,0.9,0.3
			c0.3,0.1,0.5,0.3,0.7,0.5c0.2,0.2,0.4,0.4,0.5,0.7c0.1,0.2,0.2,0.5,0.3,0.7c0.1,0.2,0.1,0.5,0.2,0.7c0,0.2,0.1,0.5,0.1,0.7
			c0,0.1,0,0.2,0,0.4c0,0.1,0,0.2,0,0.4c0,0.2-0.2,0.3-0.4,0.3c-0.1,0-0.2-0.1-0.3-0.2l0,0c0-0.1,0-0.2-0.1-0.3
			c0-0.1-0.1-0.2-0.1-0.3c-0.1-0.2-0.1-0.4-0.2-0.6c-0.1-0.2-0.2-0.4-0.2-0.5c-0.1-0.2-0.2-0.3-0.3-0.5c-0.2-0.3-0.5-0.5-0.7-0.6
			c-0.3-0.1-0.6-0.1-0.9-0.1l0.1,0c-0.2,0-0.3,0.1-0.5,0.1c-0.1,0.1-0.3,0.1-0.4,0.2c-0.3,0.2-0.5,0.4-0.6,0.6
			c-0.2,0.3-0.3,0.6-0.3,0.9c-0.1,0.3-0.1,0.7-0.1,1.1c0,0.4,0.1,0.8,0.1,1.1c0.1,0.4,0.2,0.8,0.3,1.2c0.1,0.4,0.2,0.8,0.3,1.2
			c0.1,0.2,0.1,0.4,0.2,0.6c0.1,0.2,0.1,0.4,0.2,0.6l0.4,1.2c0.1,0.2,0.1,0.4-0.1,0.5C18.8,35.1,18.7,35,18.6,34.8z"/>
		<path class="st1" d="M23.3,27.5C23.3,27.5,23.3,27.5,23.3,27.5c0-0.1,0-0.1,0-0.2c0-0.1,0-0.3,0-0.6c0-0.2,0-0.5,0.1-0.9
			c0-0.3,0.1-0.7,0.3-1.2c0.2-0.4,0.4-0.9,0.8-1.3c0.2-0.2,0.4-0.4,0.7-0.6c0.3-0.2,0.6-0.3,0.9-0.3c0.3,0,0.7,0,1,0l0.1,0l0.1,0
			l0,0l0,0l0.1,0l0.1,0l0,0l0.1,0c0.1,0,0.2,0.1,0.3,0.1c0.1,0,0.1,0,0.1,0.1l0.1,0.1c0.2,0.1,0.3,0.2,0.4,0.4
			c0.1,0.1,0.1,0.1,0.2,0.2c0.1,0.1,0.1,0.1,0.2,0.2c0.1,0.1,0.2,0.3,0.2,0.4c0,0.1,0.1,0.1,0.1,0.2l0.1,0.2
			c0.2,0.6,0.3,1.2,0.4,1.7c0.1,0.6,0.1,1.1,0.1,1.6c0,0.5,0,1-0.1,1.5c0,0.5-0.1,0.9-0.2,1.3c-0.1,0.4-0.1,0.8-0.2,1.1
			C29.1,32,29,32.3,29,32.5c-0.1,0.2-0.1,0.4-0.2,0.5c0,0,0,0.1,0,0.1c0,0,0,0.1,0,0.1c0,0,0,0.1,0,0.1c-0.1,0.2-0.3,0.2-0.4,0.2
			C28.1,33.3,28,33.2,28,33l0-0.1c0,0,0,0,0,0c0,0,0,0,0,0c0,0,0,0,0-0.1c0-0.1,0-0.3,0.1-0.5c0-0.2,0.1-0.5,0.1-0.8
			c0-0.3,0-0.7,0.1-1.1c0-0.4,0-0.8,0-1.3c0-0.4,0-0.9,0-1.4c0-0.5-0.1-1-0.2-1.4c-0.1-0.5-0.2-0.9-0.4-1.4
			c-0.2-0.4-0.4-0.8-0.6-0.9l0,0c0,0,0,0,0,0c0,0,0,0,0,0c0,0,0,0,0,0l0,0l-0.1,0l-0.1,0l0,0h0l0,0c0,0-0.1,0,0.1,0l0,0
			c-0.2,0-0.4,0-0.5,0c-0.2,0-0.3,0.1-0.4,0.1c-0.1,0.1-0.3,0.2-0.4,0.3c-0.2,0.2-0.4,0.5-0.6,0.8c-0.2,0.3-0.3,0.6-0.4,0.9
			c-0.1,0.3-0.2,0.5-0.2,0.8c-0.1,0.2-0.1,0.4-0.1,0.5c0,0.1,0,0.2,0,0.2l0,0c0,0.2-0.2,0.3-0.4,0.2C23.4,27.7,23.3,27.6,23.3,27.5z
			"/>
		<path class="st2" d="M31.3,26.9C31.3,26.9,31.3,26.9,31.3,26.9c0-0.1,0-0.1,0-0.2c0-0.1-0.1-0.3-0.1-0.5c0-0.2-0.1-0.4-0.1-0.7
			c0-0.3,0-0.6,0-0.9c0-0.3,0.1-0.7,0.2-1.1c0.1-0.4,0.3-0.8,0.6-1.3c0.1-0.2,0.3-0.4,0.5-0.6c0.1-0.1,0.2-0.2,0.3-0.2
			c0.1-0.1,0.2-0.1,0.4-0.2c0.1,0,0.1,0,0.2-0.1c0.1,0,0.1,0,0.2-0.1l0.2,0l0.1,0l0.1,0l0.2,0l0,0l0,0l0,0c0,0,0.1,0,0.1,0l0,0
			l0.1,0l0.2,0c0.1,0,0.2,0,0.2,0c0.2,0,0.3,0.1,0.4,0.1c0.1,0,0.1,0.1,0.2,0.1c0.1,0,0.1,0.1,0.2,0.1c0.1,0.1,0.3,0.2,0.4,0.2
			c0.1,0,0.1,0.1,0.2,0.1l0.1,0.1c0.4,0.4,0.6,0.8,0.8,1.3c0.2,0.4,0.3,0.8,0.4,1.2c0.1,0.4,0.1,0.8,0.1,1.1c0,0.3,0,0.7,0,0.9
			c0,0.3,0,0.5,0,0.7c0,0.2,0,0.3,0,0.5c0,0.1,0,0.2,0,0.2c0,0.2-0.2,0.3-0.3,0.2c-0.1,0-0.2-0.1-0.2-0.3l0,0c0,0,0-0.2-0.1-0.6
			c0-0.2-0.1-0.4-0.1-0.7c0-0.3-0.1-0.5-0.2-0.8c-0.1-0.3-0.2-0.6-0.3-1c-0.1-0.3-0.2-0.7-0.4-1c-0.2-0.3-0.3-0.6-0.6-0.8
			c0,0-0.1-0.1-0.1-0.1c0,0-0.1,0-0.1-0.1c-0.1-0.1-0.1-0.1-0.2-0.1c0,0-0.1,0-0.1,0c0,0-0.1,0-0.1,0c-0.1,0-0.1,0-0.2,0
			c0,0,0,0-0.1,0l-0.2,0l-0.1,0h0c0,0,0.1,0,0,0l0,0l0,0h0l-0.1,0l-0.1,0l-0.1,0l-0.1,0c-0.1,0-0.1,0-0.2,0.1
			c-0.3,0.1-0.5,0.3-0.7,0.5c-0.2,0.2-0.4,0.5-0.5,0.8c-0.1,0.3-0.2,0.6-0.3,0.9c-0.1,0.3-0.1,0.6-0.2,0.8c0,0.3-0.1,0.5-0.1,0.7
			c0,0.2,0,0.3,0,0.4c0,0.1,0,0.1,0,0.1l0,0c0,0.2-0.2,0.3-0.3,0.3C31.5,27.1,31.4,27,31.3,26.9z"/>
		<path class="st1" d="M9.3,25.6c0,0,0,0,0-0.1c0-0.1,0-0.2-0.1-0.3c0-0.2-0.1-0.3-0.1-0.5c0-0.2,0-0.5,0-0.7c0-0.3,0-0.6,0.1-0.9
			c0.1-0.3,0.2-0.7,0.4-1c0.2-0.3,0.5-0.7,0.9-0.8c0.2-0.1,0.4-0.1,0.6-0.2l0,0l0,0h0l0.1,0l0.1,0c0,0,0,0,0.1,0c0.1,0,0.2,0,0.4,0
			c0.2,0,0.4,0.1,0.6,0.2c0.2,0.1,0.4,0.2,0.5,0.4c0.3,0.3,0.5,0.6,0.7,0.9c0.2,0.3,0.3,0.6,0.4,0.9c0.1,0.3,0.2,0.6,0.3,0.8
			c0.1,0.3,0.1,0.5,0.2,0.7c0,0.2,0.1,0.4,0.1,0.5c0,0.1,0,0.3,0,0.3c0,0.1,0,0.1,0,0.1l0,0c0,0.1-0.1,0.2-0.2,0.2
			c-0.1,0-0.2-0.1-0.2-0.1c0,0-0.1-0.2-0.2-0.4c0-0.1-0.1-0.3-0.2-0.5c-0.1-0.2-0.2-0.4-0.2-0.6c-0.1-0.2-0.2-0.5-0.3-0.7
			c-0.1-0.2-0.3-0.5-0.4-0.7c-0.2-0.2-0.3-0.5-0.5-0.6c-0.1-0.1-0.2-0.2-0.3-0.2c-0.1,0-0.2-0.1-0.3-0.1c-0.1,0-0.1,0-0.1,0
			c0,0,0,0,0,0l-0.1,0l-0.1,0h0l0,0h0c0,0,0.1,0,0,0l0,0c-0.1,0-0.2,0-0.3,0.1c-0.1,0-0.1,0.1-0.1,0.1c0,0-0.1,0.1-0.1,0.1
			c-0.1,0.1-0.2,0.2-0.2,0.3c-0.1,0.2-0.2,0.4-0.3,0.7c-0.1,0.2-0.1,0.5-0.2,0.7c-0.1,0.5-0.1,0.9-0.1,1.2c0,0.1,0,0.3,0,0.3
			c0,0.1,0,0.1,0,0.1v0c0,0.1-0.1,0.2-0.2,0.2C9.4,25.8,9.4,25.7,9.3,25.6z"/>
		<path class="st1" d="M1.8,23.7C1.8,23.7,1.8,23.7,1.8,23.7c-0.1,0-0.1-0.1-0.1-0.1c-0.1-0.1-0.2-0.2-0.3-0.4
			c-0.1-0.2-0.2-0.4-0.4-0.7c-0.1-0.3-0.2-0.6-0.3-0.9c-0.1-0.3-0.2-0.7-0.3-1.1c-0.1-0.4-0.2-0.8-0.2-1.3C0,18.7,0,18.2,0,17.7
			c0-0.5,0-1,0.1-1.5c0-0.2,0.1-0.5,0.2-0.8c0.1-0.3,0.2-0.5,0.3-0.8c0.2-0.2,0.4-0.5,0.7-0.7c0.1-0.1,0.3-0.2,0.5-0.2
			c0.2,0,0.4,0,0.6,0c0.2,0,0.4,0.1,0.5,0.2c0.2,0.1,0.3,0.2,0.4,0.3c0.2,0.2,0.3,0.5,0.4,0.7c0.2,0.4,0.2,0.8,0.2,1.2
			c0,0.4,0,0.7,0,1c0,0.3,0,0.5-0.1,0.7c0,0.2-0.1,0.4-0.1,0.5c0,0.1,0,0.2,0,0.2c0,0.1-0.2,0.2-0.3,0.2c-0.1,0-0.2-0.1-0.2-0.2
			c0,0,0-0.2-0.1-0.6c-0.1-0.4-0.1-1-0.3-1.6c-0.1-0.3-0.2-0.7-0.3-0.9c-0.1-0.1-0.1-0.3-0.2-0.4c0,0-0.1-0.1-0.1-0.1c0,0,0,0-0.1,0
			c0,0-0.1,0-0.1,0c0,0-0.1,0-0.1,0.1c-0.1,0-0.2,0.1-0.3,0.3c-0.2,0.3-0.3,0.7-0.4,1.1c-0.1,0.4-0.1,0.8-0.1,1.3c0,0.4,0,0.9,0,1.3
			c0,0.4,0.1,0.8,0.1,1.2c0,0.4,0.1,0.7,0.2,1.1c0.1,0.7,0.3,1.2,0.4,1.5C1.9,23,2,23.1,2,23.2c0,0,0,0.1,0.1,0.1c0,0,0,0,0,0
			c0.1,0.1,0.1,0.3,0,0.3C2,23.7,1.9,23.7,1.8,23.7z"/>
		<path class="st1" d="M5.9,18.5c0,0-0.1-0.1-0.2-0.4c-0.1-0.1-0.1-0.3-0.2-0.4c-0.1-0.2-0.2-0.4-0.3-0.6c-0.2-0.5-0.3-1-0.4-1.6
			c0-0.3,0-0.7,0-1c0.1-0.4,0.2-0.8,0.6-1.1c0.1-0.1,0.2-0.1,0.3-0.2L5.9,13L6,12.9l0.1,0l0,0l0,0c0,0,0,0,0,0l0,0l0,0l0.1,0
			c0,0,0,0,0.1,0l0.1,0c0.1,0,0.1,0,0.2,0c0.2,0,0.4,0,0.6,0.1c0.2,0.1,0.4,0.2,0.5,0.3c0.2,0.1,0.3,0.3,0.4,0.4
			c0.1,0.1,0.2,0.3,0.2,0.4c0.1,0.3,0.2,0.6,0.3,0.8c0.1,0.2,0.1,0.5,0.1,0.7c0,0.2,0,0.4,0,0.5c0,0.1,0,0.3,0,0.3
			c0,0.1,0,0.1,0,0.1c0,0.1-0.1,0.1-0.2,0.1c-0.1,0-0.1-0.1-0.1-0.1v0c0,0,0-0.1-0.1-0.4c0-0.1-0.1-0.3-0.2-0.5
			c-0.1-0.2-0.1-0.4-0.2-0.6c-0.1-0.2-0.2-0.4-0.3-0.6c-0.1-0.2-0.3-0.4-0.4-0.5c-0.2-0.1-0.3-0.1-0.5-0.1c0,0,0,0-0.1,0l0,0
			c0,0,0,0,0,0l-0.1,0l0,0h0c0.1,0,0,0,0,0l0,0l0,0l0,0l-0.1,0c0,0,0,0-0.1,0c0,0-0.1,0-0.1,0.1c-0.1,0.1-0.2,0.3-0.3,0.5
			c-0.1,0.2-0.1,0.5-0.1,0.8c0,0.3,0,0.5,0,0.8c0,0.3,0.1,0.5,0.1,0.7C6,17.1,6,17.3,6,17.5c0,0.2,0.1,0.3,0.1,0.5
			c0.1,0.3,0.1,0.4,0.1,0.4v0c0,0.1,0,0.2-0.1,0.2C6,18.6,6,18.6,5.9,18.5z"/>
		<path class="st1" d="M9.4,16.8c0,0,0-0.1-0.1-0.3c0-0.2-0.1-0.4-0.1-0.7c0-0.2,0-0.3,0-0.5c0-0.2,0.1-0.4,0.2-0.6
			c0.1-0.2,0.2-0.4,0.5-0.6c0.1-0.1,0.3-0.1,0.4-0.2c0.1,0,0.1,0,0.2,0c0.1,0,0.1,0,0.2,0c0.1,0,0.3,0.1,0.4,0.1
			c0.1,0,0.2,0.1,0.3,0.2c0.2,0.1,0.3,0.3,0.5,0.5c0.2,0.3,0.3,0.7,0.4,1c0.1,0.3,0.1,0.5,0.1,0.7c0,0.1,0,0.2,0,0.2
			c0,0,0,0.1,0,0.1c0,0.1-0.1,0.1-0.1,0.1c-0.1,0-0.1,0-0.1-0.1l0,0c0,0,0-0.1-0.1-0.2c-0.1-0.2-0.1-0.4-0.3-0.6
			c-0.1-0.2-0.3-0.5-0.5-0.7c-0.1-0.1-0.2-0.2-0.3-0.3c-0.1,0-0.1-0.1-0.2-0.1l0,0l0,0c0,0-0.1,0-0.1,0c0,0-0.1,0-0.1,0
			c0,0,0,0-0.1,0c0,0-0.1,0-0.1,0c-0.1,0-0.2,0.1-0.2,0.2c-0.1,0.1-0.1,0.3-0.2,0.4c0,0.1-0.1,0.3-0.1,0.4c-0.1,0.3-0.1,0.5-0.1,0.6
			c0,0.2,0,0.3,0,0.3v0c0,0.1-0.1,0.1-0.2,0.1C9.4,16.8,9.4,16.8,9.4,16.8z"/>
		<path class="st1" d="M14.6,20.6c0,0,0,0-0.1-0.1c-0.1-0.1-0.1-0.2-0.2-0.3c-0.2-0.3-0.4-0.6-0.7-1.1c-0.1-0.2-0.2-0.5-0.4-0.8
			c-0.1-0.3-0.2-0.7-0.2-1c0-0.2,0-0.4,0-0.6c0-0.2,0.1-0.5,0.2-0.7c0.1-0.2,0.3-0.5,0.5-0.6c0.2-0.2,0.4-0.3,0.7-0.4l0.1,0l0,0l0,0
			l0,0l0,0l0.1,0l0.1,0c0.1,0,0.1,0,0.2,0c0.1,0,0.1,0,0.2,0c0.3,0,0.5,0.1,0.8,0.2c0.2,0.1,0.4,0.3,0.6,0.5
			c0.1,0.2,0.3,0.3,0.4,0.5c0.2,0.4,0.3,0.7,0.4,1c0.1,0.3,0.1,0.6,0.2,0.9c0.1,0.5,0.1,1,0,1.3c0,0.2,0,0.3,0,0.4
			c0,0.1,0,0.1,0,0.1c0,0.2-0.2,0.3-0.3,0.2c-0.1,0-0.2-0.1-0.2-0.2l0,0c0,0,0-0.2-0.1-0.5c-0.1-0.3-0.2-0.7-0.3-1.2
			c-0.1-0.2-0.2-0.5-0.3-0.8c-0.1-0.3-0.2-0.5-0.4-0.7c-0.1-0.1-0.1-0.2-0.2-0.3c-0.1-0.1-0.2-0.1-0.2-0.2c-0.1,0-0.1,0-0.2,0
			c0,0,0,0-0.1,0c0,0,0,0-0.1,0c0,0,0,0,0,0l-0.1,0l0,0c0,0,0,0,0,0l0,0l0,0l0,0l0,0c-0.2,0.1-0.3,0.2-0.4,0.3
			c0,0.1-0.1,0.2-0.1,0.3c0,0.1,0,0.2,0,0.4c0,0.3,0,0.5,0.1,0.8c0.1,0.3,0.1,0.5,0.2,0.8c0.1,0.5,0.3,0.9,0.4,1.2
			c0.1,0.3,0.2,0.4,0.2,0.4l0,0c0.1,0.1,0,0.3-0.2,0.4C14.8,20.7,14.7,20.6,14.6,20.6z"/>
		<path class="st1" d="M19.4,19.7c0,0,0-0.1-0.1-0.1c0-0.1-0.1-0.2-0.1-0.4c-0.1-0.2-0.1-0.4-0.2-0.7c-0.1-0.3-0.1-0.6-0.2-0.9
			c0-0.3-0.1-0.7,0-1.1c0-0.2,0.1-0.4,0.2-0.7c0.1-0.2,0.3-0.5,0.5-0.6c0.1-0.1,0.3-0.2,0.4-0.2l0.1,0l0,0l0,0h0c0,0,0.1,0,0,0l0,0
			l0.2,0c0,0,0,0,0.1,0l0.1,0c0,0,0.1,0,0.1,0c0.1,0,0.2,0,0.2,0.1l0.1,0c0,0,0.1,0,0.1,0.1c0.1,0,0.1,0.1,0.2,0.1
			c0.2,0.2,0.4,0.4,0.5,0.6c0.1,0.1,0.1,0.2,0.2,0.3c0,0.1,0.1,0.2,0.1,0.3c0.1,0.5,0.2,0.9,0.3,1.3c0,0.4,0.1,0.9,0.1,1.3
			c0,0.4,0,0.8,0,1.2c0,0.4-0.1,0.7-0.1,1c-0.1,0.6-0.2,1.2-0.3,1.6c-0.1,0.2-0.1,0.3-0.2,0.4c0,0.1-0.1,0.2-0.1,0.2
			c-0.1,0.1-0.2,0.2-0.4,0.1c-0.1-0.1-0.2-0.2-0.2-0.4l0,0c0,0,0,0,0-0.1c0-0.1,0.1-0.2,0.1-0.4c0.1-0.3,0.1-0.9,0.2-1.5
			c0-0.6,0.1-1.4,0-2.1c0-0.4,0-0.8-0.1-1.2c-0.1-0.4-0.1-0.8-0.2-1.2c0-0.1-0.1-0.2-0.1-0.3c0-0.1-0.1-0.2-0.1-0.2
			c-0.1-0.1-0.2-0.3-0.3-0.3c0,0,0,0-0.1,0c0,0,0,0,0,0c0,0,0,0,0,0c0,0,0,0-0.1,0c0,0,0,0,0,0l0,0c0,0,0,0,0,0l-0.2,0l0,0
			c0,0,0.1,0,0,0l0,0l0,0l0,0l0,0c-0.1,0-0.1,0-0.1,0.1c-0.2,0.1-0.3,0.4-0.3,0.7c-0.1,0.3-0.1,0.6-0.1,0.9c0,0.6,0.1,1.1,0.1,1.5
			c0,0.2,0.1,0.3,0.1,0.4c0,0.1,0,0.1,0,0.1l0,0c0,0.2-0.1,0.3-0.2,0.3C19.6,19.9,19.5,19.8,19.4,19.7z"/>
		<path class="st1" d="M27.8,17.5c0,0,0-0.1,0-0.2c0-0.1,0-0.3,0.1-0.5c0-0.2,0-0.4,0-0.7c0-0.3,0-0.6,0-0.9c0-0.3-0.1-0.7-0.3-1.1
			c-0.1-0.2-0.2-0.4-0.4-0.6c-0.2-0.2-0.4-0.4-0.7-0.5c-0.3-0.1-0.6-0.2-0.9-0.1l-0.1,0l0,0c0,0,0,0,0,0l0,0l0,0l0,0l0,0
			c0,0,0,0,0,0c0,0-0.1,0-0.1,0.1c-0.2,0.1-0.3,0.2-0.4,0.3c-0.2,0.2-0.4,0.4-0.5,0.7C24.1,14,24,14.3,24,14.5
			c-0.2,0.5-0.2,0.9-0.3,1.4c-0.1,0.4-0.1,0.9-0.1,1.3c0,0.4,0,0.8,0,1.2c0,0.4,0,0.7,0,1.1c0,0.3,0,0.6,0.1,0.9
			c0,0.3,0.1,0.5,0.1,0.7c0,0.2,0.1,0.3,0.1,0.4c0,0.1,0,0.2,0,0.2c0,0.1,0.1,0.2,0.3,0.2c0.1,0,0.2-0.1,0.2-0.2v0c0,0,0-0.2,0-0.6
			c0-0.2,0-0.4,0-0.7c0-0.3,0-0.6,0-0.9c0-0.3,0-0.7,0.1-1c0-0.4,0.1-0.8,0.1-1.2c0.1-0.4,0.1-0.8,0.2-1.2c0.1-0.4,0.2-0.8,0.3-1.2
			c0.1-0.4,0.3-0.7,0.5-0.9c0,0,0.1-0.1,0.1-0.1c0,0,0,0,0,0c0,0,0,0,0,0l0,0l0,0l0,0l0,0c-0.1,0,0,0,0,0l0,0l0,0c0.1,0,0.2,0,0.3,0
			c0.1,0,0.2,0.1,0.3,0.2c0.1,0.1,0.2,0.2,0.2,0.4c0.1,0.3,0.2,0.6,0.3,0.9c0.1,0.3,0.1,0.6,0.2,0.8c0.1,0.3,0.1,0.5,0.1,0.7
			c0.1,0.4,0.1,0.6,0.1,0.6v0c0,0.1,0.1,0.2,0.3,0.2C27.7,17.6,27.8,17.6,27.8,17.5z"/>
		<path class="st1" d="M32.6,14.1c-0.1-0.2-0.1-0.3-0.2-0.5c0-0.1-0.1-0.2-0.1-0.2c0-0.1-0.1-0.1-0.1-0.2c-0.1-0.1-0.2-0.2-0.3-0.3
			c-0.1,0-0.1-0.1-0.2-0.1l0,0c0,0,0,0,0,0c0,0,0,0,0,0l0,0h0l-0.2,0h0c0,0,0.1,0,0,0l0,0h0l0,0c0,0,0,0,0,0c-0.1,0-0.1,0-0.1,0.1
			c-0.1,0.1-0.2,0.2-0.3,0.3c-0.2,0.3-0.3,0.7-0.4,1.1c-0.1,0.4-0.1,0.8-0.2,1.2c0,0.4-0.1,0.8-0.1,1.2c0,0.4,0,0.7,0,1.1
			c0,0.7,0,1.2,0,1.6c0,0.4,0,0.6,0,0.6c0,0.1-0.1,0.2-0.2,0.2c-0.1,0-0.2-0.1-0.2-0.1c0,0-0.1-0.2-0.1-0.6c-0.1-0.4-0.2-1-0.3-1.7
			c0-0.3-0.1-0.7-0.1-1.1c0-0.4,0-0.8,0-1.3c0-0.4,0-0.9,0.1-1.4c0.1-0.5,0.2-1,0.5-1.5c0.1-0.2,0.3-0.5,0.6-0.7
			c0.1-0.1,0.3-0.2,0.5-0.2c0,0,0.1,0,0.1,0l0.1,0l0,0l0,0c0,0,0.1,0,0,0h0h0.2h0l0.1,0l0.1,0c0,0,0.1,0,0.1,0l0.1,0
			c0.2,0,0.3,0.1,0.4,0.2c0.6,0.3,0.9,1.2,1,1.9c0.2,1,0.3,2.1-0.1,2.2C33.1,16.1,33.1,15.2,32.6,14.1z"/>
		<path class="st1" d="M33.8,13.7c0-0.3,0-0.7,0.1-1.1c0.1-0.4,0.1-0.8,0.3-1.3c0.1-0.2,0.2-0.4,0.5-0.6c0.2-0.2,0.5-0.4,0.8-0.4
			c0.1,0,0.2,0,0.2,0h0.1l0.1,0l0.1,0l0.1,0l0.1,0c0.1,0,0.2,0,0.2,0.1c0.3,0.1,0.5,0.3,0.7,0.4c0.2,0.2,0.4,0.4,0.5,0.6
			c0.1,0.2,0.2,0.4,0.4,0.6c0.2,0.4,0.3,0.8,0.4,1.2c0.2,0.8,0.3,1.6,0.4,2.3c0,0.7,0,1.2,0,1.6c0,0.2,0,0.3-0.1,0.4
			c0,0.1,0,0.2,0,0.2c0,0.1-0.2,0.2-0.3,0.2c-0.1,0-0.2-0.1-0.2-0.3l0,0c0,0,0-0.2,0-0.6c0-0.4-0.1-0.9-0.2-1.5c0-0.3-0.1-0.6-0.2-1
			c-0.1-0.4-0.2-0.7-0.3-1.1c-0.1-0.4-0.3-0.7-0.4-1.1c-0.1-0.2-0.2-0.3-0.3-0.5c-0.1-0.2-0.2-0.3-0.4-0.4c-0.1-0.1-0.3-0.2-0.4-0.2
			c0,0-0.1,0-0.1,0c0,0,0,0,0,0l-0.1,0l-0.1,0l0,0l0,0h0c0,0,0,0,0,0l0,0c0,0-0.1,0-0.1,0c-0.1,0-0.2,0-0.3,0.1
			c-0.1,0.1-0.2,0.2-0.3,0.3c-0.2,0.3-0.2,0.6-0.3,1c-0.1,0.3-0.1,0.7-0.1,1c0,0.8,0,1.8-0.3,1.8C34,15.4,33.8,14.3,33.8,13.7z"/>
		<path class="st1" d="M40.7,19.2c0,0-0.1-0.2-0.2-0.7c-0.1-0.4-0.3-1.1-0.5-1.8c-0.1-0.4-0.2-0.8-0.2-1.3c-0.1-0.5-0.1-0.9-0.2-1.4
			c0-0.5,0-1,0.1-1.6l0-0.2c0-0.1,0-0.1,0-0.2c0-0.1,0.1-0.3,0.1-0.4c0-0.1,0.1-0.3,0.2-0.4l0.1-0.2l0.1-0.1l0.1-0.1
			c0.2-0.3,0.5-0.5,0.8-0.7c0.1,0,0.2-0.1,0.2-0.1c0.1,0,0.2,0,0.3-0.1l0.1,0l0,0l0,0l0,0c0,0,0,0,0,0l0,0l0.2,0c0,0,0.2,0,0.2,0
			c0.1,0,0.2,0,0.3,0l0.2,0c0.1,0,0.2,0.1,0.2,0.1c0.3,0.1,0.6,0.3,0.8,0.5c0.4,0.5,0.6,1,0.8,1.5c0.1,0.5,0.2,0.9,0.2,1.3
			c0,0.4,0,0.8,0,1.1c0,0.3-0.1,0.6-0.1,0.8c0,0.2-0.1,0.4-0.1,0.5c0,0.1,0,0.1,0,0.1c0,0,0,0,0,0c0,0.1-0.2,0.2-0.3,0.2
			c-0.1,0-0.2-0.1-0.2-0.3v0c0,0,0-0.1,0-0.2c0-0.1,0-0.3,0-0.5c0-0.2,0-0.5,0-0.8c0-0.3,0-0.6-0.1-1c-0.1-0.4-0.1-0.7-0.3-1.1
			c-0.1-0.4-0.3-0.7-0.6-1c-0.1-0.1-0.3-0.2-0.4-0.3c0,0-0.1,0-0.1,0c0,0-0.1,0-0.1,0c0,0-0.1,0-0.1,0c0,0-0.1,0-0.1,0l-0.2,0h0
			c0,0,0.1,0,0,0h0h0l0,0l-0.1,0c0,0-0.1,0-0.1,0c0,0-0.1,0-0.1,0c-0.1,0.1-0.3,0.2-0.4,0.3l0,0l0,0.1L41,11.7l-0.1,0.1
			c0,0,0,0.1-0.1,0.1c0,0.1-0.1,0.2-0.1,0.3c0,0.1,0,0.1,0,0.2l0,0.2c-0.1,0.4-0.1,0.9-0.1,1.4c0,0.5,0,0.9,0.1,1.3
			c0,0.4,0.1,0.8,0.1,1.2c0.1,0.8,0.2,1.4,0.3,1.8c0.1,0.4,0.1,0.7,0.1,0.7c0,0.2-0.1,0.3-0.2,0.3C40.8,19.4,40.7,19.4,40.7,19.2
			L40.7,19.2z"/>
		<path class="st1" d="M45.9,13.1c-0.1-0.2-0.1-0.4-0.2-0.5c0-0.2-0.1-0.4-0.1-0.5c0-0.4-0.1-0.7-0.1-1.1c0-0.2,0-0.4,0.1-0.6
			c0-0.1,0-0.2,0.1-0.3c0-0.1,0.1-0.2,0.1-0.3c0-0.1,0-0.1,0.1-0.2c0-0.1,0.1-0.1,0.1-0.2c0.1-0.1,0.2-0.2,0.3-0.3
			c0.1-0.1,0.2-0.2,0.4-0.2c0.1,0,0.1-0.1,0.2-0.1c0.1,0,0.1,0,0.2,0l0,0l0,0l0.3,0c0.1,0,0.2,0,0.3,0c0.1,0,0.2,0.1,0.3,0.1
			C48.2,9,48.3,9,48.4,9c0.2,0.1,0.4,0.2,0.6,0.4c0.1,0.1,0.2,0.1,0.2,0.2l0.1,0.1l0.1,0.1c0.1,0.1,0.1,0.2,0.2,0.3
			c0.1,0.1,0.1,0.2,0.2,0.3c0.1,0.1,0.1,0.2,0.1,0.3c0,0.1,0.1,0.2,0.1,0.3c0.1,0.2,0.1,0.4,0.2,0.5c0.1,0.2,0.1,0.4,0.1,0.6
			c0,0.2,0.1,0.4,0.1,0.6c0,0.2,0.1,0.4,0.1,0.6c0,0.2,0,0.4,0.1,0.6c0,0.2,0,0.4,0,0.6c0,0.4,0,0.7,0,1.1c0,0.4,0,0.7-0.1,1.1
			c0,0.1-0.1,0.2-0.3,0.2c-0.1,0-0.2-0.1-0.2-0.2v0c0-0.4,0-0.7-0.1-1.1c0-0.4-0.1-0.7-0.1-1.1c0-0.3-0.1-0.7-0.2-1
			c0-0.2-0.1-0.3-0.1-0.5c0-0.2-0.1-0.3-0.1-0.5c-0.1-0.2-0.1-0.3-0.2-0.5c-0.1-0.2-0.1-0.3-0.2-0.5c0-0.1-0.1-0.1-0.1-0.2
			c0-0.1-0.1-0.1-0.1-0.2c0-0.1-0.1-0.1-0.1-0.2c0-0.1-0.1-0.1-0.1-0.2l-0.1-0.1l-0.1-0.1c0-0.1-0.1-0.1-0.2-0.1
			c-0.1-0.1-0.2-0.2-0.3-0.2c-0.1,0-0.1,0-0.2-0.1c-0.1,0-0.1,0-0.2-0.1l-0.2,0l-0.2,0l0.1,0c0,0,0,0-0.1,0c0,0,0,0-0.1,0
			c0,0-0.1,0-0.1,0.1c0,0-0.1,0.1-0.1,0.1c0,0,0,0,0,0.1c0,0,0,0,0,0.1c0,0.1-0.1,0.1-0.1,0.2c0,0.1-0.1,0.1-0.1,0.2
			c0,0.1-0.1,0.3-0.1,0.5c0,0.1,0,0.2,0,0.2c0,0.1,0,0.2,0,0.2c0,0.2,0,0.3,0,0.5c0,0.2,0,0.3,0,0.5l0,0.5v0c0,0.1-0.1,0.2-0.3,0.2
			C46,13.3,45.9,13.2,45.9,13.1z"/>
		<path class="st1" d="M44.5,7.1C44.5,7.1,44.5,7.1,44.5,7.1c0-0.1,0-0.2,0-0.3c0-0.2,0-0.4-0.1-0.8c0-0.2,0-0.3-0.1-0.5
			c0-0.2-0.1-0.3-0.1-0.5c-0.1-0.2-0.1-0.3-0.2-0.5c-0.1-0.1-0.2-0.2-0.3-0.3c-0.1,0-0.3,0-0.4,0c-0.7,0.5-0.7,1.8-0.7,2
			c0,0.2-0.1,0.3-0.2,0.3c-0.1,0-0.2-0.1-0.2-0.2c0-0.2,0-0.5,0-0.8c0-0.2,0-0.4,0.1-0.5c0-0.2,0.1-0.4,0.2-0.6
			c0.1-0.2,0.2-0.5,0.5-0.6c0.1-0.1,0.3-0.1,0.5-0.1c0,0,0.1,0,0.1,0c0,0,0.1,0,0.1,0c0.1,0,0.1,0,0.2,0.1c0.3,0.1,0.5,0.3,0.7,0.5
			c0.1,0.2,0.2,0.4,0.3,0.6c0.1,0.2,0.1,0.4,0.1,0.6c0,0.2,0,0.4,0,0.5c0,0.3,0,0.6,0,0.8c0,0.1,0,0.2,0,0.2c0,0.1,0,0.1,0,0.1
			c0,0.1-0.1,0.2-0.2,0.1C44.5,7.2,44.5,7.2,44.5,7.1L44.5,7.1z"/>
		<path class="st1" d="M41.3,6.2c0,0,0-0.1,0-0.3c0-0.2,0-0.5-0.1-0.8c0-0.2-0.1-0.3-0.1-0.5c-0.1-0.2-0.1-0.4-0.2-0.5
			c-0.1-0.2-0.2-0.3-0.3-0.3c-0.1,0-0.1,0-0.2-0.1h-0.1h0l0,0c0,0,0,0,0,0h0l0,0l0,0l-0.1,0c0,0,0,0,0,0c0,0,0,0,0,0c0,0,0,0,0,0
			c0,0-0.1,0-0.1,0.1c-0.1,0-0.1,0.1-0.1,0.2c-0.1,0.2-0.1,0.3-0.2,0.5c0,0.2-0.1,0.4-0.1,0.6c0,0.2,0,0.4,0,0.5c0,0.3,0,0.6,0,0.8
			s0,0.3,0,0.3v0c0,0.1-0.1,0.1-0.1,0.1c-0.1,0-0.1,0-0.1-0.1c0,0,0,0,0-0.1c0-0.1,0-0.1-0.1-0.2C39.1,6.3,39,6,39,5.7
			c0-0.2,0-0.4,0-0.6c0-0.2,0-0.4,0-0.7c0-0.2,0.1-0.5,0.2-0.7c0.1-0.2,0.3-0.5,0.7-0.6c0,0,0.1,0,0.1,0l0.1,0l0,0h0l0,0l0,0h0
			l0.1,0l0.1,0c0.2,0,0.3,0.1,0.4,0.1c0.1,0.1,0.3,0.2,0.4,0.3c0.1,0.1,0.2,0.2,0.2,0.3c0.1,0.2,0.2,0.5,0.2,0.7
			c0,0.2,0.1,0.4,0.1,0.6c0,0.4,0,0.7,0,0.9c0,0.2,0,0.3,0,0.3c0,0.1-0.1,0.1-0.2,0.1C41.3,6.3,41.3,6.3,41.3,6.2z"/>
		<path class="st1" d="M37.9,7.1c0,0,0-0.1-0.1-0.4c0-0.1-0.1-0.3-0.1-0.4c0-0.2-0.1-0.4-0.1-0.6c-0.1-0.4-0.2-0.9-0.4-1.3
			c-0.1-0.2-0.2-0.5-0.3-0.7c-0.1-0.1-0.1-0.2-0.2-0.3c-0.1-0.1-0.2-0.1-0.2-0.2c-0.1,0-0.2,0-0.2,0h0c0,0,0,0,0,0h0l0,0l0,0l-0.1,0
			c0,0,0,0,0,0l0,0c0,0-0.1,0-0.1,0.1c-0.2,0.1-0.3,0.3-0.3,0.5c-0.1,0.2-0.1,0.4-0.2,0.7c0,0.2,0,0.4-0.1,0.7c0,0.4,0,0.8,0,1
			c0,0.1,0,0.2,0,0.3c0,0.1,0,0.1,0,0.1l0,0c0,0.1-0.1,0.2-0.2,0.2c-0.1,0-0.2-0.1-0.2-0.2c0,0,0,0,0-0.1c0-0.1,0-0.2-0.1-0.3
			c0-0.3-0.1-0.6-0.1-1.1c0-0.2,0-0.5,0-0.7c0-0.3,0.1-0.5,0.2-0.8C35,3.4,35,3.3,35.1,3.2c0.1-0.1,0.2-0.3,0.4-0.4
			c0.1,0,0.2-0.1,0.3-0.1l0.1,0c0,0,0,0,0.1,0l0.1,0l0,0l0,0l0,0h0c0.2,0,0.4,0,0.6,0.1C36.8,2.7,37,2.9,37.1,3
			c0.1,0.1,0.2,0.3,0.3,0.4c0.2,0.3,0.3,0.5,0.4,0.8c0.2,0.5,0.3,1,0.4,1.4c0,0.2,0.1,0.4,0.1,0.6c0,0.2,0,0.3,0.1,0.5
			c0,0.2,0,0.4,0,0.4c0,0.1-0.1,0.2-0.2,0.2C38,7.3,37.9,7.2,37.9,7.1L37.9,7.1z"/>
		<path class="st1" d="M33.3,7.6c0,0,0-0.1,0-0.3c0-0.2,0-0.4,0-0.7c0-0.3,0-0.6-0.1-1c0-0.2-0.1-0.3-0.2-0.4C33.1,5.1,33,5.1,33,5
			c0,0-0.1,0-0.2-0.1l0,0h0h0c0,0,0,0,0,0h0h0h-0.1c0,0,0,0-0.1,0c-0.1,0-0.1,0-0.2,0.1c-0.1,0.1-0.2,0.2-0.3,0.3
			C32,5.7,31.9,6,31.8,6.3c-0.1,0.3-0.1,0.5-0.2,0.7c0,0.1,0,0.2,0,0.2c0,0,0,0.1,0,0.1l0,0c0,0.1-0.1,0.2-0.2,0.1
			c-0.1,0-0.1-0.1-0.1-0.2c0,0,0,0,0-0.1c0-0.1,0-0.1,0-0.2c0-0.2,0-0.4,0.1-0.8c0-0.2,0.1-0.3,0.1-0.5c0.1-0.2,0.1-0.4,0.2-0.6
			c0.1-0.2,0.2-0.4,0.5-0.5c0.1-0.1,0.2-0.1,0.4-0.2c0.1,0,0.2,0,0.2,0l0.1,0l0,0l0,0h0l0,0l0.1,0c0.3,0,0.6,0.2,0.7,0.5
			c0.1,0.2,0.2,0.4,0.2,0.7c0,0.2,0,0.4,0,0.6c0,0.2,0,0.4,0,0.5c0,0.3-0.1,0.6-0.1,0.8c0,0.2-0.1,0.3-0.1,0.3
			c0,0.1-0.1,0.1-0.2,0.1C33.4,7.7,33.3,7.7,33.3,7.6L33.3,7.6z"/>
		<path class="st1" d="M27.4,10.9c-0.1-0.4-0.1-0.9-0.1-1.3c0-0.2,0-0.4,0-0.7c0-0.1,0-0.2,0-0.3c0-0.1,0-0.2,0-0.3
			c0-0.1,0-0.2,0.1-0.3c0-0.1,0.1-0.2,0.1-0.3c0-0.1,0.1-0.2,0.1-0.3c0-0.1,0.1-0.1,0.1-0.2c0-0.1,0.1-0.1,0.1-0.2
			C28,6.9,28,6.9,28,6.8c0,0,0.1-0.1,0.1-0.1c0,0,0.1-0.1,0.2-0.1c0.1,0,0.1-0.1,0.2-0.1c0.1,0,0.1-0.1,0.2-0.1c0.1,0,0.1,0,0.2,0
			c0.1,0,0.3,0,0.4,0l0,0l0,0l0.1,0c0,0,0.1,0,0.1,0.1c0,0,0.1,0,0.1,0.1c0,0,0.1,0.1,0.1,0.1c0,0,0.1,0.1,0.1,0.1
			c0,0,0.1,0.1,0.1,0.1c0,0,0.1,0.1,0.1,0.1c0,0,0,0.1,0.1,0.1c0,0,0,0.1,0,0.1c0,0,0,0.1,0,0.1c0,0.1,0,0.2,0,0.3
			c0,0.1,0,0.2-0.1,0.3c0,0.1-0.1,0.2-0.1,0.2c0,0.1-0.1,0.1-0.2,0c0,0-0.1-0.1-0.1-0.1v0c0-0.1,0-0.3,0-0.4c0-0.1,0-0.1,0-0.2
			c0-0.1,0-0.1-0.1-0.2c0,0,0-0.1,0-0.1c0,0,0,0,0-0.1c0,0,0,0-0.1-0.1c0,0,0,0-0.1,0c0,0,0,0-0.1,0c0,0,0,0-0.1,0c0,0,0,0-0.1,0
			l-0.1,0l0,0c0,0-0.1,0-0.1,0c0,0-0.1,0-0.1,0c0,0-0.1,0-0.1,0c0,0-0.1,0-0.1,0c0,0-0.1,0-0.1,0c0,0-0.1,0-0.1,0.1
			c0,0-0.1,0.1-0.1,0.1c0,0-0.1,0.1-0.1,0.1c0,0-0.1,0.1-0.1,0.1c0,0-0.1,0.1-0.1,0.1c0,0.1-0.1,0.2-0.1,0.3c0,0.1-0.1,0.2-0.1,0.3
			C28,8.2,28,8.3,28,8.4c-0.1,0.4-0.2,0.8-0.2,1.2c0,0.2,0,0.4,0,0.6c0,0.2,0,0.4,0,0.6v0c0,0.1-0.1,0.1-0.1,0.1
			C27.5,11,27.5,10.9,27.4,10.9z"/>
		<path class="st1" d="M4.1,10.9c0,0-0.1-0.1-0.1-0.4c-0.1-0.2-0.2-0.6-0.2-1c0-0.2,0-0.5,0-0.7c0-0.3,0-0.5,0.1-0.8
			C3.9,7.7,4,7.3,4.3,7.1C4.4,7,4.6,6.8,4.8,6.8c0.1,0,0.2-0.1,0.3-0.1l0.1,0l0,0l0,0h0h0l0,0h0.1l0.1,0c0,0,0.1,0,0.1,0
			c0.1,0,0.2,0,0.3,0c0.1,0,0.2,0,0.2,0.1c0.1,0,0.2,0.1,0.2,0.1C6.6,7,6.8,7.2,7.1,7.4c0.2,0.2,0.4,0.4,0.5,0.6
			c0.1,0.2,0.3,0.4,0.4,0.6c0.2,0.4,0.3,0.7,0.4,1c0,0.1,0.1,0.2,0.1,0.3c0,0.1,0,0.1,0,0.1c0,0.1,0,0.2-0.1,0.2
			c-0.1,0-0.2,0-0.2-0.1l0,0c0,0,0,0,0-0.1C8,10,8,10,7.9,9.8C7.8,9.6,7.6,9.3,7.4,9C7.2,8.7,6.9,8.3,6.5,8C6.4,7.8,6.2,7.7,6,7.6
			c-0.1,0-0.1,0-0.2-0.1c-0.1,0-0.1,0-0.2,0c-0.1,0-0.1,0-0.2,0c0,0,0,0-0.1,0H5.3l-0.1,0c0,0,0,0,0,0h0l0,0l0,0l0,0l-0.1,0
			c0,0-0.1,0-0.1,0C5,7.5,4.9,7.6,4.8,7.6C4.7,7.8,4.6,7.9,4.6,8.2C4.5,8.4,4.5,8.6,4.4,8.8c0,0.2,0,0.4,0,0.6c0,0.4,0,0.7,0.1,1
			c0,0.2,0,0.4,0,0.4c0,0.1-0.1,0.2-0.2,0.2C4.2,11.1,4.1,11,4.1,10.9z"/>
		<path class="st1" d="M7.5,7.2C7.5,7.2,7.5,7.2,7.5,7.2c0-0.1,0-0.2,0.1-0.3c0-0.1,0.1-0.2,0.1-0.3c0.1-0.1,0.1-0.3,0.3-0.4
			C8,6,8.2,5.8,8.4,5.7c0.2-0.1,0.5-0.2,0.7-0.2l0,0c0,0,0,0,0,0l0,0h0l0.1,0l0,0l0.1,0c0,0,0.1,0,0.1,0c0.1,0,0.1,0,0.2,0.1
			c0.1,0,0.1,0.1,0.2,0.1c0.2,0.2,0.4,0.4,0.5,0.6c0.2,0.4,0.3,0.9,0.4,1.3c0,0.2,0,0.4,0.1,0.6c0,0.2,0,0.4,0,0.5
			c0,0.3,0,0.6,0,0.8c0,0.1,0,0.2,0,0.2c0,0.1,0,0.1,0,0.1c0,0.1-0.1,0.2-0.2,0.2c-0.1,0-0.2-0.1-0.2-0.2v0c0,0,0-0.1,0-0.3
			c0-0.2,0-0.4-0.1-0.7c0-0.1,0-0.3-0.1-0.5c0-0.2-0.1-0.3-0.1-0.5c0-0.2-0.1-0.4-0.1-0.5C9.9,7.1,9.8,6.9,9.7,6.7
			C9.6,6.6,9.5,6.5,9.4,6.4c0,0,0,0-0.1,0c0,0-0.1,0-0.1,0c0,0,0,0,0,0c0,0,0,0,0,0l0,0l-0.1,0l0,0h0c0,0,0,0,0,0l0,0
			c-0.1,0-0.3,0-0.4,0.1c-0.1,0-0.2,0.1-0.3,0.2C8.3,6.7,8.3,6.8,8.2,6.9C8.1,7,8.1,7,8,7.1c0,0.1-0.1,0.1-0.1,0.2c0,0,0,0.1,0,0.1
			c0,0.1-0.1,0.2-0.3,0.1C7.5,7.4,7.4,7.3,7.5,7.2z"/>
		<path class="st1" d="M11.9,11.6c0,0-0.1-0.2-0.1-0.4c-0.1-0.3-0.2-0.7-0.3-1.1c-0.1-0.2-0.1-0.5-0.2-0.8c0-0.3-0.1-0.6-0.1-0.9
			c-0.1-0.6-0.1-1.3,0-2c0-0.3,0.1-0.7,0.3-1l0.1-0.1c0,0,0.1-0.1,0.1-0.1c0,0,0.1-0.1,0.1-0.1l0.1-0.1c0.1-0.1,0.2-0.1,0.2-0.2
			c0.1-0.1,0.2-0.1,0.3-0.1c0,0,0.1,0,0.1,0l0.1,0l0,0l0,0h0l0,0l0,0l0.1,0l0.1,0l0.1,0c0,0,0.1,0,0.1,0c0,0,0.1,0,0.1,0
			c0.1,0,0.2,0,0.3,0c0.4,0.1,0.7,0.3,0.9,0.5c0.2,0.2,0.3,0.5,0.4,0.7c0.1,0.2,0.1,0.4,0.1,0.6c0,0.2,0,0.3,0,0.4
			c0,0.1,0,0.1,0,0.1c0,0.1-0.1,0.2-0.2,0.2c-0.1,0-0.2-0.1-0.2-0.2c0,0,0-0.1-0.1-0.4c0-0.1-0.1-0.3-0.2-0.4
			c-0.1-0.2-0.2-0.3-0.3-0.4c-0.1-0.1-0.3-0.2-0.5-0.2c0,0-0.1,0-0.2,0l-0.1,0l-0.1,0l0,0l-0.1,0l-0.1,0c0,0,0,0,0,0l0,0h0l0,0l0,0
			l0,0c0,0,0,0-0.1,0c-0.2,0.1-0.3,0.2-0.4,0.4C12.1,5.9,12,6.2,12,6.5c-0.1,0.6-0.1,1.2-0.1,1.8c0,0.6,0.1,1.1,0.2,1.6
			c0.1,0.5,0.1,0.9,0.2,1.1c0,0.3,0.1,0.4,0.1,0.4c0,0.1-0.1,0.2-0.2,0.3C12,11.7,11.9,11.7,11.9,11.6z"/>
		<path class="st1" d="M15.5,11.5c0,0,0-0.2-0.1-0.5c-0.1-0.3-0.2-0.7-0.2-1.2c0-0.3-0.1-0.5-0.1-0.8c0-0.3,0-0.6,0-0.9
			c0-0.3,0-0.7,0.1-1c0-0.2,0.1-0.4,0.2-0.5c0.1-0.2,0.3-0.4,0.5-0.5C15.9,6,16,6,16,6c0.1,0,0.1,0,0.2,0l0,0l0,0l0,0c0,0,0.1,0,0,0
			l0,0l0.1,0c0,0,0,0,0.1,0l0.1,0c0.1,0,0.2,0,0.4,0.1C16.9,6,17,6,17,6.1l0.1,0.1c0.3,0.3,0.5,0.6,0.7,0.9c0.2,0.3,0.3,0.6,0.3,0.9
			c0.1,0.3,0.1,0.6,0.2,0.8c0.1,0.5,0.1,0.9,0.2,1.2c0,0.1,0,0.3,0,0.3c0,0.1,0,0.1,0,0.1c0,0.1-0.1,0.2-0.2,0.2
			c-0.1,0-0.2-0.1-0.2-0.2l0,0c0,0,0-0.2-0.1-0.4c-0.1-0.3-0.2-0.7-0.3-1.2c-0.1-0.2-0.1-0.5-0.2-0.8c-0.1-0.3-0.2-0.5-0.3-0.8
			c-0.1-0.3-0.3-0.5-0.5-0.6l-0.1,0l-0.1,0c0,0-0.1,0-0.1,0c0,0,0,0,0,0c0,0,0,0-0.1,0l-0.1,0l0,0c0,0,0,0,0,0l0,0h0l0,0
			c0,0,0,0-0.1,0c0,0,0,0-0.1,0c-0.1,0-0.2,0.1-0.2,0.2c-0.1,0.1-0.1,0.2-0.2,0.4c-0.1,0.3-0.1,0.6-0.1,0.9c0,0.6,0,1.2,0,1.7
			c0,0.5,0.1,0.9,0.1,1.2c0,0.3,0.1,0.5,0.1,0.5v0c0,0.1-0.1,0.2-0.2,0.2C15.6,11.7,15.5,11.6,15.5,11.5z"/>
		<path class="st1" d="M19.5,10.7c0,0,0,0,0-0.1c0-0.1,0-0.2,0-0.3c0-0.3,0.1-0.6,0.2-1.1c0.1-0.2,0.1-0.5,0.2-0.7
			c0.1-0.2,0.2-0.5,0.5-0.7c0.1-0.1,0.3-0.2,0.5-0.3c0.2-0.1,0.4,0,0.6,0l0.1,0c0,0,0,0,0.1,0l0.1,0c0.1,0,0.2,0.1,0.3,0.1
			c0.1,0.1,0.3,0.2,0.4,0.4c0.2,0.3,0.3,0.6,0.4,0.9c0.1,0.3,0.1,0.6,0.1,0.9c0.1,0.6,0,1.1,0,1.5c0,0.4-0.1,0.8-0.1,1.1
			c0,0.1,0,0.2,0,0.3c0,0.1,0,0.1,0,0.1c0,0.1-0.1,0.2-0.3,0.2c-0.1,0-0.2-0.1-0.2-0.2v0c0,0,0,0,0-0.1c0-0.1,0-0.2,0-0.3
			c0-0.2,0-0.6,0-1c0-0.4,0-0.9-0.1-1.4c0-0.3-0.1-0.5-0.2-0.8C22,9,21.9,8.7,21.8,8.5c-0.1-0.1-0.1-0.2-0.2-0.2
			c0,0-0.1-0.1-0.1-0.1l0,0c0,0,0,0,0,0l-0.1,0c-0.1,0-0.2,0-0.2,0c-0.1,0-0.1,0.1-0.2,0.1c-0.1,0.1-0.3,0.3-0.4,0.5
			c-0.1,0.2-0.2,0.4-0.2,0.6c-0.1,0.4-0.2,0.7-0.3,1c0,0.1,0,0.2-0.1,0.3c0,0.1,0,0.1,0,0.1l0,0c0,0.1-0.1,0.2-0.3,0.2
			C19.5,11,19.5,10.9,19.5,10.7z"/>
		<path class="st1" d="M17.9,5.5C17.9,5.5,17.9,5.5,17.9,5.5c0-0.1,0.1-0.1,0.1-0.2C18,5.2,18,5.2,18,5.1c0-0.1,0.1-0.2,0.1-0.3
			c0-0.1,0.1-0.2,0.2-0.3c0-0.1,0.1-0.1,0.1-0.2c0-0.1,0.1-0.1,0.1-0.2c0-0.1,0.1-0.1,0.1-0.2l0.1-0.1l0.1-0.1
			c0.1-0.1,0.2-0.2,0.3-0.2c0,0,0.1,0,0.1,0l0,0l0,0l0,0l0,0c-0.1,0,0,0,0,0l0,0h0l0.1,0c0,0,0,0,0.1,0l0,0c0,0,0,0,0.1,0l0.1,0
			c0.1,0,0.1,0,0.1,0.1c0.1,0.1,0.2,0.1,0.3,0.2C20,4,20,4,20.1,4c0,0,0.1,0.1,0.1,0.1c0.1,0.1,0.1,0.2,0.2,0.2
			c0,0.1,0.1,0.1,0.1,0.2c0.1,0.1,0.1,0.2,0.1,0.2l0,0c0,0.1,0.1,0.1,0.2,0c0,0,0.1-0.1,0.1-0.1c0,0,0,0,0-0.1c0,0,0-0.1,0-0.2
			c0-0.1-0.1-0.3-0.2-0.6c0-0.1-0.1-0.1-0.1-0.2c0-0.1-0.1-0.1-0.1-0.2c-0.1-0.1-0.2-0.2-0.3-0.3c0,0-0.1,0-0.1-0.1l-0.1,0
			c0,0,0,0-0.1,0l-0.1,0c-0.1,0-0.1,0-0.2,0l-0.1,0c0,0,0,0-0.1,0l-0.1,0l0,0h0l0,0l0,0h0l0,0l-0.1,0c0,0-0.1,0-0.1,0
			c-0.2,0.1-0.3,0.2-0.5,0.3l-0.1,0.1l-0.1,0.1c-0.1,0.1-0.1,0.1-0.1,0.2C18.1,3.9,18,4,18,4.1c0,0.1-0.1,0.1-0.1,0.2
			c-0.1,0.1-0.1,0.3-0.1,0.4c-0.1,0.2-0.1,0.4-0.1,0.6c0,0.1,0,0.1,0,0.2c0,0,0,0.1,0,0.1c0,0.1,0,0.1,0.1,0.1
			C17.8,5.6,17.8,5.5,17.9,5.5L17.9,5.5z"/>
		<path class="st1" d="M25,8.5L25,8.5C25,8.5,25.1,8.5,25,8.5c0.1,0.1,0.2,0,0.2,0c0-0.3,0-0.6,0-0.9c0-0.3-0.1-0.6-0.1-0.9
			c-0.1-0.3-0.5-2-2.2-1.9c-0.1,0-0.2,0-0.2,0c-0.1,0-0.2,0-0.2,0c0,0-0.1,0-0.1,0c0,0-0.1,0-0.1,0.1c0,0,0,0,0,0.1
			c0,0,0.1,0.1,0.1,0.1l0,0C24.4,4.8,24.9,7.3,25,8.5z"/>
	</g>
	<g>
		<path class="st1" d="M69.9,16.6c-1.5,0-2.5,0.4-3.3,0.8c-0.2,0.2-0.5,0.2-0.7,0.2c0-0.4-0.1-0.7-0.1-1c0-1.9,0.9-2.8,2.7-2.8
			c2.8,0,5.5,0.1,8.2,0.1c2.2,0,3.3-0.4,4.4-0.6c0,0.1,0.1,0.2,0.1,0.4c-0.1,2.1-1.1,3-2.8,3c-0.7,0-2.1-0.1-2.8-0.1
			c-0.5,0-0.7,0.1-0.8,0.5c-0.6,2.7-2,8.2-2.9,12.5c-0.3,1.3-0.5,2.6-0.5,3.6c0,0.6,0.1,1,0.4,1.5c-0.9,0.6-2.3,0.8-2.9,0.8
			c-1.1,0-1.7-0.4-1.7-1.3c0-0.6,0.1-1.5,0.4-2.8c0.2-1,3-12.5,3.3-13.9c0.1-0.3,0.1-0.5,0.1-0.7C70.6,16.7,70.3,16.6,69.9,16.6z"/>
		<path class="st1" d="M87.1,30.7c0.4,0.7,0.3,1.5-0.2,2.2c-0.5,0.6-1.1,1.1-2,1.5c-1.4,0.6-2.8,0.9-4.3,0.9c-3.2,0-5-1.4-5.2-4.2
			s0.8-5.6,2.7-7.6c1.8-2.2,4.2-3.4,6.6-3.4c2.3,0,3.4,1,3.4,2.8c0,1.9-2.4,4.2-6.1,5.5c-0.9,0.3-2.6,1.1-2.7,1.8
			c0,0.7,0.1,1.2,0.3,1.6c0.6,0.9,1.6,1.4,2.6,1.3C84.2,33,85.7,32.1,87.1,30.7z M79.7,28.5c0.5-1,1.3-1.4,2.3-1.9
			c1.7-1,2.2-1.9,2.5-2.8c0.3-1-0.1-1.8-1-1.8c-1.5,0-2.7,1.9-3.5,5.3C79.9,27.2,79.8,27.7,79.7,28.5z"/>
		<path class="st1" d="M100.1,20.2c0.8,0,1.1,0.5,1.1,1.3c0,1.3-0.8,2.6-1.9,3.9c-0.3-0.4-0.6-0.7-1-0.7c-2.2,0-3.9,4.2-5.8,9
			c-0.4,1-0.9,1.5-2.2,1.5c-0.5,0-1.2-0.1-2.1-0.2c2.1-5.4,3.1-10.2,3.1-12.1c0-0.7-0.1-1.3-0.3-1.8c1.2-0.5,2.2-0.8,2.9-0.8
			c0.8,0,1.4,0.5,1.4,1.4c0,1.1-0.4,2.7-0.9,4.5c2-3.6,4-5.9,5.6-5.9C100,20.2,100,20.2,100.1,20.2z"/>
		<path class="st1" d="M112.4,21.4c0-0.5-0.3-1.4-0.6-1.7c0.3-0.1,0.8-0.1,1-0.1c2,0,2.8,0.5,2.8,2c0,1.2-0.9,3.3-2.9,6.3
			c-2.8,4.3-5.2,7.4-8.3,7.4c-0.2,0-0.4,0-0.6-0.1c0-0.4,0.1-1,0.1-1.4c0-2-0.3-5.6-0.8-8.8c-0.4-2.2-0.7-3.4-1.3-3.8
			c1.1-0.7,2.1-1,3.1-1c1.1,0,1.8,0.8,1.9,2.5c0.3,2,0.4,4.8,0.4,7.1c0,0.6,0,1.2,0,1.9c1.6-2.1,2.8-4,3.7-5.7
			C112,24.1,112.4,22.5,112.4,21.4z"/>
		<path class="st1" d="M126.7,30.7c0.4,0.7,0.3,1.5-0.2,2.2c-0.5,0.6-1.1,1.1-2,1.5c-1.4,0.6-2.8,0.9-4.3,0.9c-3.2,0-5-1.4-5.2-4.2
			s0.8-5.6,2.7-7.6c1.8-2.2,4.2-3.4,6.6-3.4c2.3,0,3.4,1,3.4,2.8c0,1.9-2.4,4.2-6.1,5.5c-0.9,0.3-2.6,1.1-2.7,1.8
			c0,0.7,0.1,1.2,0.3,1.6c0.6,0.9,1.6,1.4,2.6,1.3C123.8,33,125.3,32.1,126.7,30.7z M119.3,28.5c0.5-1,1.3-1.4,2.3-1.9
			c1.7-1,2.2-1.9,2.5-2.8c0.3-1-0.1-1.8-1-1.8c-1.5,0-2.7,1.9-3.5,5.3C119.5,27.2,119.4,27.7,119.3,28.5z"/>
		<path class="st1" d="M139.9,16.6c-1.5,0-2.5,0.4-3.3,0.8c-0.2,0.2-0.5,0.2-0.7,0.2c0-0.4-0.1-0.7-0.1-1c0-1.9,0.9-2.8,2.7-2.8
			c2.8,0,5.5,0.1,8.2,0.1c2.2,0,3.3-0.4,4.4-0.6c0,0.1,0.1,0.2,0.1,0.4c-0.1,2.1-1.1,3-2.8,3c-0.7,0-2.1-0.1-2.8-0.1
			c-0.5,0-0.7,0.1-0.8,0.5c-0.6,2.7-2,8.2-2.9,12.5c-0.3,1.3-0.5,2.6-0.5,3.6c0,0.6,0.1,1,0.4,1.5c-0.9,0.6-2.3,0.8-2.9,0.8
			c-1.1,0-1.7-0.4-1.7-1.3c0-0.6,0.1-1.5,0.4-2.8c0.2-1,3-12.5,3.3-13.9c0.1-0.3,0.1-0.5,0.1-0.7C140.6,16.7,140.3,16.6,139.9,16.6z
			"/>
		<path class="st1" d="M161.3,30c0.1,0,0.1,0.1,0.1,0.2c0,2-2.9,5-4.8,5c-1.5,0-2.4-0.9-2.4-2.9c0-0.7,0.1-1.6,0.1-2.2
			c-2,3.3-4,5-5.8,5.1h-0.3c-2.2,0-2.9-1.6-2.9-3.8c0.1-5.3,4.2-11.3,8.6-11.3c1.1,0,2,0.2,2.7,0.8c0.4-0.5,1-0.7,1.7-0.7
			c0.8,0,1.6,0.2,2.4,0.7c-1,1.5-2.7,8.2-2.7,10.3c0,0.5,0.2,0.9,0.3,1.1c0.3-0.1,0.8-0.4,1.3-1C160.5,30.5,161.1,30,161.3,30z
			 M155.8,23.8c-0.3-1.1-1.3-1.6-2.2-1.6c-2.2,0-4.4,5.2-4.4,8.8c0.1,1,0.3,1.4,0.9,1.4c0.6,0,1.4-0.9,2.5-2.5
			C154,27.9,155.2,25.5,155.8,23.8z"/>
		<path class="st1" d="M173.1,20.2c0.8,0,1.1,0.5,1.1,1.3c0,1.3-0.8,2.6-1.9,3.9c-0.3-0.4-0.6-0.7-1-0.7c-2.2,0-3.9,4.2-5.8,9
			c-0.4,1-0.9,1.5-2.2,1.5c-0.5,0-1.2-0.1-2.1-0.2c2.1-5.4,3.1-10.2,3.1-12.1c0-0.7-0.1-1.3-0.3-1.8c1.2-0.5,2.2-0.8,2.9-0.8
			c0.8,0,1.4,0.5,1.4,1.4c0,1.1-0.4,2.7-0.9,4.5c2-3.6,4-5.9,5.6-5.9C173,20.2,173,20.2,173.1,20.2z"/>
		<path class="st1" d="M183.4,21.7c0,1.3-1,2.2-2.3,2.2c-0.5,0-1.1,0-1.6,0c-0.2,0-0.4,0-0.6,0.1c-0.3,1.3-0.6,2.8-1,4.2
			c-0.2,0.8-0.4,2-0.4,2.9c0.1,0.8,0.4,1.3,1.1,1.3c0.3,0,0.9-0.5,1.4-1c0.9-0.9,1.4-1.4,1.7-1.4c0.1,0,0.1,0.1,0.1,0.2
			c0,2-2.9,5-4.8,5c-2.3,0-3.2-1.4-3.2-3.5c0-0.5,0.1-1.1,0.2-1.7c0.3-1.6,0.4-2.1,0.9-4.3c0.6-2.3,1.2-5.1,1.2-6.7
			c0-0.5-0.1-1-0.3-1.5c1.1-0.7,2.1-0.9,2.9-0.9s1.3,0.5,1.3,1.3c0-0.1-0.1,1.2-0.7,3.9h1.4c0.8,0,1.7-0.1,2.6-0.2
			C183.4,21.6,183.4,21.6,183.4,21.7z"/>
		<path class="st1" d="M197.9,21.7c0,0.6-0.1,1.3-0.4,2c-0.7,2.7-1.6,5.3-1.6,7.3c0,0.5,0.2,0.9,0.3,1.2c0.8-0.2,2.7-2.3,3-2.3
			c0.1,0,0.2,0.1,0.2,0.2c0,2-2.9,5-4.9,5c-1.5,0-2.4-1-2.4-2.9c0-0.7,0.1-1.4,0.2-2.1c-2.1,3.4-4.1,5.3-6.4,5.3
			c-2,0-2.4-1.4-2.4-2.8c0-2.1,2-8.3,2-10.3c0-0.5-0.1-1-0.3-1.4c1-0.4,2-0.6,2.7-0.6c1.3,0,1.6,0.7,1.6,1.5c0,0.5-0.2,1.2-0.3,1.7
			c-0.9,3.8-1.8,7-1.8,8.3c0,0.4,0.1,0.7,0.5,0.7c0.8,0,2.5-1.9,4-4.6c1.4-2.5,2.1-4.8,2.1-6.3c0-0.3-0.1-0.7-0.2-0.9
			c0.7-0.2,1.7-0.4,2.3-0.4C197.1,20.3,197.9,20.6,197.9,21.7z"/>
	</g>
</g>
</svg>
